%!PS-Adobe-3.0 EPSF-3.0
%%Creator: inkscape 0.44.1
%%Pages: 1
%%Orientation: Portrait
%%BoundingBox: 0 0 301 325
%%HiResBoundingBox: -9.8684055e-07 1.1830519e-05 300.67696 324.04142
%%DocumentMedia: plain 301 325 0 () ()
%%EndComments
%%Page: 1 1
0 325 translate
0.8 -0.8 scale
gsave [1 0 0 1 0 0] concat
gsave [1 0 0 1 -140.6479 -454.8072] concat
gsave [13.77998 0 0 13.77998 -1797.483 -5812.437] concat
0.06666667 0.18431373 0.13725491 setrgbcolor
[] 0 setdash
0.44600001 setlinewidth
0 setlinejoin
0 setlinecap
newpath
147.04413 456.84536 moveto
149.89179 455.03093 149.89179 455.03093 149.89179 455.03093 curveto
164.23666 458.21007 164.23666 458.21007 164.23666 458.21007 curveto
166.09762 461.13073 166.09762 461.13073 166.09762 461.13073 curveto
163.97819 470.69399 163.97819 470.69399 163.97819 470.69399 curveto
167.70011 476.53532 167.70011 476.53532 167.70011 476.53532 curveto
162.91848 475.47561 162.91848 475.47561 162.91848 475.47561 curveto
157.07714 479.19752 157.07714 479.19752 157.07714 479.19752 curveto
156.01743 483.97915 156.01743 483.97915 156.01743 483.97915 curveto
152.29552 478.13781 152.29552 478.13781 152.29552 478.13781 curveto
142.73227 476.01839 142.73227 476.01839 142.73227 476.01839 curveto
140.87131 473.09772 140.87131 473.09772 140.87131 473.09772 curveto
144.05045 458.75284 144.05045 458.75284 144.05045 458.75284 curveto
146.97112 456.89188 147.19017 456.75231 147.04413 456.84536 curveto
closepath
stroke
gsave
0.32941177 0.96078438 0.23137257 setrgbcolor
newpath
149.45482 460.69777 moveto
151.08354 459.66 151.08354 459.66 151.08354 459.66 curveto
159.2881 461.47831 159.2881 461.47831 159.2881 461.47831 curveto
160.35248 463.14879 160.35248 463.14879 160.35248 463.14879 curveto
159.14027 468.6185 159.14027 468.6185 159.14027 468.6185 curveto
161.26903 471.95946 161.26903 471.95946 161.26903 471.95946 curveto
158.53417 471.35336 158.53417 471.35336 158.53417 471.35336 curveto
155.19321 473.48211 155.19321 473.48211 155.19321 473.48211 curveto
154.5871 476.21696 154.5871 476.21696 154.5871 476.21696 curveto
152.45835 472.876 152.45835 472.876 152.45835 472.876 curveto
146.98864 471.6638 146.98864 471.6638 146.98864 471.6638 curveto
145.92426 469.99332 145.92426 469.99332 145.92426 469.99332 curveto
147.74258 461.78875 147.74258 461.78875 147.74258 461.78875 curveto
149.41306 460.72437 149.53834 460.64455 149.45482 460.69777 curveto
closepath
eofill
grestore
grestore
grestore
grestore
showpage
%%EOF
