%!PS-Adobe-3.0 EPSF-3.0
%%Creator: inkscape 0.44.1
%%Pages: 1
%%Orientation: Portrait
%%BoundingBox: 0 0 300 282
%%HiResBoundingBox: -1.6003052e-05 3.1546775e-06 299.17086 281.60054
%%DocumentMedia: plain 300 282 0 () ()
%%EndComments
%%Page: 1 1
0 282 translate
0.8 -0.8 scale
gsave [1 0 0 1 0 0] concat
gsave [1 0 0 1 -223.0178 -364.7616] concat
0.078431375 0.19215688 0.20392159 setrgbcolor
[] 0 setdash
6.092 setlinewidth
0 setlinejoin
0 setlinecap
newpath
291.27165 711.77503 moveto
226.06378 634.61515 226.06378 634.61515 226.06378 634.61515 curveto
232.03972 563.43134 232.03972 563.43134 232.03972 563.43134 curveto
321.57109 434.60703 321.57109 434.60703 321.57109 434.60703 curveto
463.5195 367.8076 463.5195 367.8076 463.5195 367.8076 curveto
473.84933 425.21153 473.84933 425.21153 473.84933 425.21153 curveto
539.05733 502.37141 539.05733 502.37141 539.05733 502.37141 curveto
593.93538 522.12749 593.93538 522.12749 593.93538 522.12749 curveto
504.83256 650.33506 504.83256 650.33506 504.83256 650.33506 curveto
363.56348 716.81489 363.56348 716.81489 291.27165 711.77503 curveto
closepath
stroke
gsave
0.43529415 1 0.70980394 setrgbcolor
newpath
335.02159 646.48194 moveto
297.68359 602.30021 297.68359 602.30021 297.68359 602.30021 curveto
301.10559 561.54034 301.10559 561.54034 301.10559 561.54034 curveto
352.37114 487.77577 352.37114 487.77577 352.37114 487.77577 curveto
433.65079 449.52635 433.65079 449.52635 433.65079 449.52635 curveto
439.56576 482.39557 439.56576 482.39557 439.56576 482.39557 curveto
476.90375 526.57744 476.90375 526.57744 476.90375 526.57744 curveto
508.32692 537.88995 508.32692 537.88995 508.32692 537.88995 curveto
457.3066 611.30144 457.3066 611.30144 457.3066 611.30144 curveto
376.41594 649.36782 376.41594 649.36782 335.02159 646.48194 curveto
closepath
eofill
grestore
grestore
grestore
showpage
%%EOF
