%!PS-Adobe-3.0 EPSF-3.0
%%Creator: inkscape 0.44.1
%%Pages: 1
%%Orientation: Portrait
%%BoundingBox: -37 -45 885 337
%%HiResBoundingBox: -37.052171 -45.912127 884.5532 336
%%DocumentMedia: plain 842 298 0 () ()
%%EndComments
%%Page: 1 1
0 298 translate
0.8 -0.8 scale
gsave [1 0 0 1 0 0] concat
gsave
<<
/ShadingType 3
/ColorSpace /DeviceRGB
/Coords [532.51569 189.20116 0 532.51569 189.20116 540.99823]
/Extend [true true]
/Domain [0 1]
/Function <<
/FunctionType 3
/Functions
[
<<
/FunctionType 2
/Domain [0 1]
/C0 [0.078431375 0.49803925 0.65490198]
/C1 [0.078431375 0.29803923 0.20000002]
/N 1
>>
]
/Domain [0 1]
/Bounds [ ]
/Encode [ 0 1 ]
>>
>>
newpath
-8.4825506 164.33246 moveto
1073.5139 164.33246 lineto
1073.5139 388.06985 lineto
-8.4825506 388.06985 lineto
-8.4825506 164.33246 lineto
closepath
clip
gsave [1 1.626812e-08 1.233963e-08 0.717889 -2.334675e-06 140.3758] concat
shfill
grestore
grestore
0 0 0 setrgbcolor
[] 0 setdash
1 setlinewidth
0 setlinejoin
0 setlinecap
newpath
0.5 -21.802872 moveto
0.5 -41.802872 0.5 -41.802872 0.5 -41.802872 curveto
0.5 -41.712739 lineto
0.5 -41.712739 lineto
stroke
0 0 0 setrgbcolor
[] 0 setdash
1 setlinewidth
0 setlinejoin
0 setlinecap
newpath
1051.3363 -27.452759 moveto
1051.3363 -47.452759 1051.3363 -47.452759 1051.3363 -47.452759 curveto
1051.3363 -47.362626 lineto
1051.3363 -47.362626 lineto
stroke
0 0 0 setrgbcolor
[] 0 setdash
1 setlinewidth
0 setlinejoin
0 setlinecap
newpath
-0.5 424.46 moveto
-0.5 404.46 -0.5 404.46 -0.5 404.46 curveto
-0.5 404.55013 lineto
-0.5 404.55013 lineto
stroke
0 0 0 setrgbcolor
[] 0 setdash
1 setlinewidth
0 setlinejoin
0 setlinecap
newpath
1052.3363 428.9374 moveto
1052.3363 408.9374 1052.3363 408.9374 1052.3363 408.9374 curveto
1052.3363 409.02753 lineto
1052.3363 409.02753 lineto
stroke
0 0 0 setrgbcolor
[] 0 setdash
1 setlinewidth
0 setlinejoin
0 setlinecap
newpath
-40.5 2.5472412 moveto
-20.5 2.5472412 -20.5 2.5472412 -20.5 2.5472412 curveto
-20.59013 2.5472412 lineto
-20.59013 2.5472412 lineto
stroke
0 0 0 setrgbcolor
[] 0 setdash
1 setlinewidth
0 setlinejoin
0 setlinecap
newpath
-45.815214 372.48975 moveto
-25.815214 372.48975 -25.815214 372.48975 -25.815214 372.48975 curveto
-25.905344 372.48975 lineto
-25.905344 372.48975 lineto
stroke
0 0 0 setrgbcolor
[] 0 setdash
1 setlinewidth
0 setlinejoin
0 setlinecap
newpath
1079.5 2.5472412 moveto
1099.5 2.5472412 1099.5 2.5472412 1099.5 2.5472412 curveto
1099.4099 2.5472412 lineto
1099.4099 2.5472412 lineto
stroke
0 0 0 setrgbcolor
[] 0 setdash
1 setlinewidth
0 setlinejoin
0 setlinecap
newpath
1085.1915 372.48975 moveto
1105.1915 372.48975 1105.1915 372.48975 1105.1915 372.48975 curveto
1105.1014 372.48975 lineto
1105.1014 372.48975 lineto
stroke
gsave [-0.561695 -0.827344 0.827344 -0.561695 1138.236 1199.413] concat
0.68627453 0.89803928 0.95294124 setrgbcolor
[] 0 setdash
0.39799997 setlinewidth
0 setlinejoin
0 setlinecap
newpath
860.70912 308.42113 moveto
858.61307 301.26551 858.61307 301.26551 858.61307 301.26551 curveto
861.14286 296.63968 861.14286 296.63968 861.14286 296.63968 curveto
871.03385 290.6196 871.03385 290.6196 871.03385 290.6196 curveto
882.60972 290.35155 882.60972 290.35155 882.60972 290.35155 curveto
881.5921 294.53443 881.5921 294.53443 881.5921 294.53443 curveto
883.68814 301.69005 883.68814 301.69005 883.68814 301.69005 curveto
886.8018 304.66279 886.8018 304.66279 886.8018 304.66279 curveto
876.95817 310.65405 876.95817 310.65405 876.95817 310.65405 curveto
865.4377 310.92082 865.4377 310.92082 860.70912 308.42113 curveto
closepath
stroke
gsave
0.29411766 1 0.70980394 setrgbcolor
newpath
865.61238 305.3213 moveto
864.41218 301.22399 864.41218 301.22399 864.41218 301.22399 curveto
865.86075 298.57524 865.86075 298.57524 865.86075 298.57524 curveto
871.52432 295.12814 871.52432 295.12814 871.52432 295.12814 curveto
878.15267 294.97466 878.15267 294.97466 878.15267 294.97466 curveto
877.56998 297.36978 877.56998 297.36978 877.56998 297.36978 curveto
878.77017 301.46708 878.77017 301.46708 878.77017 301.46708 curveto
880.55306 303.16927 880.55306 303.16927 880.55306 303.16927 curveto
874.91659 306.59986 874.91659 306.59986 874.91659 306.59986 curveto
868.31997 306.75262 868.31997 306.75262 865.61238 305.3213 curveto
closepath
eofill
grestore
grestore
gsave [-0.286186 0.958174 -0.958174 -0.286186 1431.783 -425.3216] concat
0.68627453 0.89803928 0.95294124 setrgbcolor
[] 0 setdash
0.39799997 setlinewidth
0 setlinejoin
0 setlinecap
newpath
863.18123 318.33055 moveto
870.62684 318.7296 870.62684 318.7296 870.62684 318.7296 curveto
874.15011 322.65193 874.15011 322.65193 874.15011 322.65193 curveto
876.5441 333.98073 876.5441 333.98073 876.5441 333.98073 curveto
872.95295 344.98875 872.95295 344.98875 872.95295 344.98875 curveto
869.34534 342.63986 869.34534 342.63986 869.34534 342.63986 curveto
861.89973 342.24081 861.89973 342.24081 861.89973 342.24081 curveto
858.06173 344.19064 858.06173 344.19064 858.06173 344.19064 curveto
855.67921 332.91607 855.67921 332.91607 855.67921 332.91607 curveto
859.25316 321.96074 859.25316 321.96074 863.18123 318.33055 curveto
closepath
stroke
gsave
0.29411766 1 0.70980394 setrgbcolor
newpath
864.47695 323.98493 moveto
868.7403 324.21343 868.7403 324.21343 868.7403 324.21343 curveto
870.75773 326.45936 870.75773 326.45936 870.75773 326.45936 curveto
872.12852 332.94622 872.12852 332.94622 872.12852 332.94622 curveto
870.07223 339.24942 870.07223 339.24942 870.07223 339.24942 curveto
868.00652 337.90445 868.00652 337.90445 868.00652 337.90445 curveto
863.74316 337.67595 863.74316 337.67595 863.74316 337.67595 curveto
861.54552 338.79242 861.54552 338.79242 861.54552 338.79242 curveto
860.18129 332.3366 860.18129 332.3366 860.18129 332.3366 curveto
862.22774 326.06357 862.22774 326.06357 864.47695 323.98493 curveto
closepath
eofill
grestore
grestore
gsave [0.252449 0.96761 -0.96761 0.252449 1072.653 -558.5209] concat
0.68627453 0.89803928 0.95294124 setrgbcolor
[] 0 setdash
0.39799997 setlinewidth
0 setlinejoin
0 setlinecap
newpath
808.48748 350.15748 moveto
804.2947 356.32322 804.2947 356.32322 804.2947 356.32322 curveto
799.11538 357.30972 799.11538 357.30972 799.11538 357.30972 curveto
788.18156 353.49866 788.18156 353.49866 788.18156 353.49866 curveto
780.61811 344.73126 780.61811 344.73126 780.61811 344.73126 curveto
784.49437 342.85878 784.49437 342.85878 784.49437 342.85878 curveto
788.68723 336.69298 788.68723 336.69298 788.68723 336.69298 curveto
789.00367 332.39977 789.00367 332.39977 789.00367 332.39977 curveto
799.88524 336.19253 799.88524 336.19253 799.88524 336.19253 curveto
807.41245 344.918 807.41245 344.918 808.48748 350.15748 curveto
closepath
stroke
gsave
0.29411766 1 0.70980394 setrgbcolor
newpath
802.9781 348.34161 moveto
800.57726 351.87215 800.57726 351.87215 800.57726 351.87215 curveto
797.61163 352.43697 797.61163 352.43697 797.61163 352.43697 curveto
791.35092 350.25476 791.35092 350.25476 791.35092 350.25476 curveto
787.02007 345.23456 787.02007 345.23456 787.02007 345.23456 curveto
789.23965 344.16235 789.23965 344.16235 789.23965 344.16235 curveto
791.64041 340.63187 791.64041 340.63187 791.64041 340.63187 curveto
791.82167 338.17354 791.82167 338.17354 791.82167 338.17354 curveto
798.05244 340.34529 798.05244 340.34529 798.05244 340.34529 curveto
802.3625 345.34151 802.3625 345.34151 802.9781 348.34161 curveto
closepath
eofill
grestore
grestore
gsave [1 0 0 1 -2.5 -5.5] concat
0.68627453 0.89803928 0.95294124 setrgbcolor
[] 0 setdash
0.398 setlinewidth
0 setlinejoin
0 setlinecap
newpath
856.64722 271.00324 moveto
853.80261 277.89559 853.80261 277.89559 853.80261 277.89559 curveto
848.93413 279.91946 848.93413 279.91946 848.93413 279.91946 curveto
837.45228 278.42274 837.45228 278.42274 837.45228 278.42274 curveto
828.25708 271.38563 828.25708 271.38563 828.25708 271.38563 curveto
831.66903 268.76062 831.66903 268.76062 831.66903 268.76062 curveto
834.51364 261.86827 834.51364 261.86827 834.51364 261.86827 curveto
833.9463 257.60093 833.9463 257.60093 833.9463 257.60093 curveto
845.37318 259.09048 845.37318 259.09048 845.37318 259.09048 curveto
854.52438 266.09391 854.52438 266.09391 856.64722 271.00324 curveto
closepath
stroke
gsave
0.29411766 1 0.70980394 setrgbcolor
newpath
850.88302 270.35134 moveto
849.2542 274.2979 849.2542 274.2979 849.2542 274.2979 curveto
846.4665 275.45676 846.4665 275.45676 846.4665 275.45676 curveto
839.892 274.59974 839.892 274.59974 839.892 274.59974 curveto
834.62683 270.57029 834.62683 270.57029 834.62683 270.57029 curveto
836.58051 269.06721 836.58051 269.06721 836.58051 269.06721 curveto
838.20933 265.12066 838.20933 265.12066 838.20933 265.12066 curveto
837.88447 262.67717 837.88447 262.67717 837.88447 262.67717 curveto
844.4275 263.5301 844.4275 263.5301 844.4275 263.5301 curveto
849.66748 267.54026 849.66748 267.54026 850.88302 270.35134 curveto
closepath
eofill
grestore
grestore
gsave [-0.270805 0.962634 -0.962634 -0.270805 1393.858 -436.5632] concat
0.68627453 0.89803928 0.95294124 setrgbcolor
[] 0 setdash
0.398 setlinewidth
0 setlinejoin
0 setlinecap
newpath
860.92235 261.72794 moveto
855.36571 256.75601 855.36571 256.75601 855.36571 256.75601 curveto
855.07335 251.49173 855.07335 251.49173 855.07335 251.49173 curveto
860.2979 241.15843 860.2979 241.15843 860.2979 241.15843 curveto
869.98914 234.82181 869.98914 234.82181 869.98914 234.82181 curveto
871.33219 238.91184 871.33219 238.91184 871.33219 238.91184 curveto
876.88883 243.88377 876.88883 243.88377 876.88883 243.88377 curveto
881.10242 244.76567 881.10242 244.76567 881.10242 244.76567 curveto
875.90288 255.0495 875.90288 255.0495 875.90288 255.0495 curveto
866.25803 261.3558 866.25803 261.3558 860.92235 261.72794 curveto
closepath
stroke
gsave
0.29411766 1 0.70980394 setrgbcolor
newpath
863.45136 256.5073 moveto
860.26963 253.66038 860.26963 253.66038 860.26963 253.66038 curveto
860.10223 250.64605 860.10223 250.64605 860.10223 250.64605 curveto
863.09381 244.72921 863.09381 244.72921 863.09381 244.72921 curveto
868.64301 241.10086 868.64301 241.10086 868.64301 241.10086 curveto
869.41204 243.4428 869.41204 243.4428 869.41204 243.4428 curveto
872.59377 246.28973 872.59377 246.28973 872.59377 246.28973 curveto
875.00648 246.79471 875.00648 246.79471 875.00648 246.79471 curveto
872.02921 252.68323 872.02921 252.68323 872.02921 252.68323 curveto
866.50657 256.29422 866.50657 256.29422 863.45136 256.5073 curveto
closepath
eofill
grestore
grestore
gsave [-0.205791 0.978596 -0.978596 -0.205791 1358.269 -524.2806] concat
0.68627453 0.89803928 0.95294124 setrgbcolor
[] 0 setdash
0.398 setlinewidth
0 setlinejoin
0 setlinecap
newpath
923.49782 271.14445 moveto
930.62712 268.96067 930.62712 268.96067 930.62712 268.96067 curveto
935.28372 271.43345 935.28372 271.43345 935.28372 271.43345 curveto
941.42482 281.24974 941.42482 281.24974 941.42482 281.24974 curveto
941.83502 292.82147 941.83502 292.82147 941.83502 292.82147 curveto
937.64002 291.85529 937.64002 291.85529 937.64002 291.85529 curveto
930.51062 294.03907 930.51062 294.03907 930.51062 294.03907 curveto
927.57642 297.18903 927.57642 297.18903 927.57642 297.18903 curveto
921.46462 287.41972 921.46462 287.41972 921.46462 287.41972 curveto
921.05642 275.90338 921.05642 275.90338 923.49782 271.14445 curveto
closepath
stroke
gsave
0.29411766 1 0.70980394 setrgbcolor
newpath
926.65762 276.00926 moveto
930.73992 274.75883 930.73992 274.75883 930.73992 274.75883 curveto
933.40622 276.17475 933.40622 276.17475 933.40622 276.17475 curveto
936.92262 281.79556 936.92262 281.79556 936.92262 281.79556 curveto
937.15752 288.42153 937.15752 288.42153 937.15752 288.42153 curveto
934.75542 287.8683 934.75542 287.8683 934.75542 287.8683 curveto
930.67322 289.11873 930.67322 289.11873 930.67322 289.11873 curveto
928.99302 290.92239 928.99302 290.92239 928.99302 290.92239 curveto
925.49342 285.32848 925.49342 285.32848 925.49342 285.32848 curveto
925.25972 278.73423 925.25972 278.73423 926.65762 276.00926 curveto
closepath
eofill
grestore
grestore
gsave [0.224294 -0.974521 0.974521 0.224294 540.4428 1122.347] concat
0.68627453 0.89803928 0.95294124 setrgbcolor
[] 0 setdash
0.398 setlinewidth
0 setlinejoin
0 setlinecap
newpath
892.33026 194.13273 moveto
888.04813 188.02866 888.04813 188.02866 888.04813 188.02866 curveto
888.9591 182.83556 888.9591 182.83556 888.9591 182.83556 curveto
896.39413 173.95899 896.39413 173.95899 896.39413 173.95899 curveto
907.27132 169.98917 907.27132 169.98917 907.27132 169.98917 curveto
907.65029 174.27735 907.65029 174.27735 907.65029 174.27735 curveto
911.93242 180.38142 911.93242 180.38142 911.93242 180.38142 curveto
915.83557 182.19731 915.83557 182.19731 915.83557 182.19731 curveto
908.43615 191.03139 908.43615 191.03139 908.43615 191.03139 curveto
897.61102 194.98221 897.61102 194.98221 892.33026 194.13273 curveto
closepath
stroke
gsave
0.29411766 1 0.70980394 setrgbcolor
newpath
895.97895 189.62296 moveto
893.52701 186.12777 893.52701 186.12777 893.52701 186.12777 curveto
894.04864 183.1542 894.04864 183.1542 894.04864 183.1542 curveto
898.30593 178.07148 898.30593 178.07148 898.30593 178.07148 curveto
904.53421 175.79836 904.53421 175.79836 904.53421 175.79836 curveto
904.75121 178.25377 904.75121 178.25377 904.75121 178.25377 curveto
907.20315 181.74895 907.20315 181.74895 907.20315 181.74895 curveto
909.4381 182.78874 909.4381 182.78874 909.4381 182.78874 curveto
905.20118 187.84712 905.20118 187.84712 905.20118 187.84712 curveto
899.00271 190.10937 899.00271 190.10937 895.97895 189.62296 curveto
closepath
eofill
grestore
grestore
gsave [-0.41541 -0.909635 0.909635 -0.41541 1165.078 1164.856] concat
0.68627453 0.89803928 0.95294124 setrgbcolor
[] 0 setdash
0.398 setlinewidth
0 setlinejoin
0 setlinecap
newpath
897.85255 202.72413 moveto
905.03221 200.71197 905.03221 200.71197 905.03221 200.71197 curveto
909.62812 203.2957 909.62812 203.2957 909.62812 203.2957 curveto
915.53205 213.25646 915.53205 213.25646 915.53205 213.25646 curveto
915.66463 224.83468 915.66463 224.83468 915.66463 224.83468 curveto
911.49393 223.76818 911.49393 223.76818 911.49393 223.76818 curveto
904.31427 225.78035 904.31427 225.78035 904.31427 225.78035 curveto
901.30531 228.85902 901.30531 228.85902 901.30531 228.85902 curveto
895.42964 218.94595 895.42964 218.94595 895.42964 218.94595 curveto
895.29769 207.42314 895.29769 207.42314 897.85255 202.72413 curveto
closepath
stroke
gsave
0.29411766 1 0.70980394 setrgbcolor
newpath
900.8948 207.66333 moveto
905.00587 206.51116 905.00587 206.51116 905.00587 206.51116 curveto
907.63749 207.99062 907.63749 207.99062 907.63749 207.99062 curveto
911.01807 213.69414 911.01807 213.69414 911.01807 213.69414 curveto
911.09399 220.32383 911.09399 220.32383 911.09399 220.32383 curveto
908.70586 219.71316 908.70586 219.71316 908.70586 219.71316 curveto
904.59478 220.86532 904.59478 220.86532 904.59478 220.86532 curveto
902.87184 222.62817 902.87184 222.62817 902.87184 222.62817 curveto
899.50744 216.95194 899.50744 216.95194 899.50744 216.95194 curveto
899.43189 210.35398 899.43189 210.35398 900.8948 207.66333 curveto
closepath
eofill
grestore
grestore
gsave [-0.997374 -0.07242363 0.07242363 -0.997374 1810.206 651.6727] concat
0.68627453 0.89803928 0.95294124 setrgbcolor
[] 0 setdash
0.398 setlinewidth
0 setlinejoin
0 setlinecap
newpath
856.27011 250.42383 moveto
854.27848 257.60918 854.27848 257.60918 854.27848 257.60918 curveto
849.68994 260.20608 849.68994 260.20608 849.68994 260.20608 curveto
838.11139 260.10656 838.11139 260.10656 838.11139 260.10656 curveto
828.13382 254.23109 828.13382 254.23109 828.13382 254.23109 curveto
831.20385 251.21341 831.20385 251.21341 831.20385 251.21341 curveto
833.19553 244.02797 833.19553 244.02797 833.19553 244.02797 curveto
832.11708 239.86039 832.11708 239.86039 832.11708 239.86039 curveto
843.64026 239.95936 843.64026 239.95936 843.64026 239.95936 curveto
853.57006 245.80674 853.57006 245.80674 856.27011 250.42383 curveto
closepath
stroke
gsave
0.29411766 1 0.70980394 setrgbcolor
newpath
850.46939 250.47262 moveto
849.32895 254.58701 849.32895 254.58701 849.32895 254.58701 curveto
846.70158 256.07393 846.70158 256.07393 846.70158 256.07393 curveto
840.0717 256.01695 840.0717 256.01695 840.0717 256.01695 curveto
834.35853 252.65267 834.35853 252.65267 834.35853 252.65267 curveto
836.11645 250.92471 836.11645 250.92471 836.11645 250.92471 curveto
837.25684 246.81041 837.25684 246.81041 837.25684 246.81041 curveto
836.63936 244.42399 836.63936 244.42399 836.63936 244.42399 curveto
843.23753 244.48068 843.23753 244.48068 843.23753 244.48068 curveto
848.92331 247.82891 848.92331 247.82891 850.46939 250.47262 curveto
closepath
eofill
grestore
grestore
gsave [0.995793 -0.09162678 0.09162678 0.995793 864.9248 263.3608] concat
0.68627453 0.89803928 0.95294124 setrgbcolor
[] 0 setdash
0.398 setlinewidth
0 setlinejoin
0 setlinecap
newpath
32.39201 72.069595 moveto
39.04614 75.433957 39.04614 75.433957 39.04614 75.433957 curveto
40.69102 80.4432 40.69102 80.4432 40.69102 80.4432 curveto
38.31891 91.776615 38.31891 91.776615 38.31891 91.776615 curveto
30.59792 100.40558 30.59792 100.40558 30.59792 100.40558 curveto
28.24207 96.802516 28.24207 96.802516 28.24207 96.802516 curveto
21.58794 93.438154 21.58794 93.438154 21.58794 93.438154 curveto
17.28968 93.67685 17.28968 93.67685 17.28968 93.67685 curveto
19.65041 82.397695 19.65041 82.397695 19.65041 82.397695 curveto
27.33445 73.810031 27.33445 73.810031 32.39201 72.069595 curveto
closepath
stroke
gsave
0.29411766 1 0.70980394 setrgbcolor
newpath
31.30036 77.766897 moveto
35.1105 79.693334 35.1105 79.693334 35.1105 79.693334 curveto
36.05235 82.561632 36.05235 82.561632 36.05235 82.561632 curveto
34.69409 89.051138 34.69409 89.051138 34.69409 89.051138 curveto
30.27305 93.992084 30.27305 93.992084 30.27305 93.992084 curveto
28.92409 91.928973 28.92409 91.928973 28.92409 91.928973 curveto
25.11395 90.002545 25.11395 90.002545 25.11395 90.002545 curveto
22.65275 90.139215 22.65275 90.139215 22.65275 90.139215 curveto
24.00453 83.680778 24.00453 83.680778 24.00453 83.680778 curveto
28.4044 78.763471 28.4044 78.763471 31.30036 77.766897 curveto
closepath
eofill
grestore
grestore
gsave [0.630796 0.77595 -0.77595 0.630796 589.4307 -510.1239] concat
0.68627453 0.89803928 0.95294124 setrgbcolor
[] 0 setdash
0.398 setlinewidth
0 setlinejoin
0 setlinecap
newpath
860.92235 261.72794 moveto
855.36571 256.75601 855.36571 256.75601 855.36571 256.75601 curveto
855.07335 251.49173 855.07335 251.49173 855.07335 251.49173 curveto
860.2979 241.15843 860.2979 241.15843 860.2979 241.15843 curveto
869.98914 234.82181 869.98914 234.82181 869.98914 234.82181 curveto
871.33219 238.91184 871.33219 238.91184 871.33219 238.91184 curveto
876.88883 243.88377 876.88883 243.88377 876.88883 243.88377 curveto
881.10242 244.76567 881.10242 244.76567 881.10242 244.76567 curveto
875.90288 255.0495 875.90288 255.0495 875.90288 255.0495 curveto
866.25803 261.3558 866.25803 261.3558 860.92235 261.72794 curveto
closepath
stroke
gsave
0.29411766 1 0.70980394 setrgbcolor
newpath
863.45136 256.5073 moveto
860.26963 253.66038 860.26963 253.66038 860.26963 253.66038 curveto
860.10223 250.64605 860.10223 250.64605 860.10223 250.64605 curveto
863.09381 244.72921 863.09381 244.72921 863.09381 244.72921 curveto
868.64301 241.10086 868.64301 241.10086 868.64301 241.10086 curveto
869.41204 243.4428 869.41204 243.4428 869.41204 243.4428 curveto
872.59377 246.28973 872.59377 246.28973 872.59377 246.28973 curveto
875.00648 246.79471 875.00648 246.79471 875.00648 246.79471 curveto
872.02921 252.68323 872.02921 252.68323 872.02921 252.68323 curveto
866.50657 256.29422 866.50657 256.29422 863.45136 256.5073 curveto
closepath
eofill
grestore
grestore
gsave [0.428944 0 0 0.428944 156.6779 188.9984] concat
0.50980395 0.91764712 1 setrgbcolor
[] 0 setdash
0.8073684 setlinewidth
0 setlinejoin
0 setlinecap
newpath
29.990593 20.391195 moveto
36.629344 16.161196 36.629344 16.161196 36.629344 16.161196 curveto
70.071649 23.572741 70.071649 23.572741 70.071649 23.572741 curveto
74.410109 30.381716 74.410109 30.381716 74.410109 30.381716 curveto
69.469079 52.676586 69.469079 52.676586 69.469079 52.676586 curveto
78.145999 66.294536 78.145999 66.294536 78.145999 66.294536 curveto
66.998564 63.824021 66.998564 63.824021 66.998564 63.824021 curveto
53.380614 72.500941 53.380614 72.500941 53.380614 72.500941 curveto
50.910099 83.648376 50.910099 83.648376 50.910099 83.648376 curveto
42.233179 70.030426 42.233179 70.030426 42.233179 70.030426 curveto
19.938309 65.089396 19.938309 65.089396 19.938309 65.089396 curveto
15.599849 58.280421 15.599849 58.280421 15.599849 58.280421 curveto
23.011394 24.838116 23.011394 24.838116 23.011394 24.838116 curveto
29.820369 20.499656 30.331042 20.174272 29.990593 20.391195 curveto
closepath
stroke
gsave
0.10196079 1 0.23137257 setrgbcolor
newpath
35.610639 29.372331 moveto
39.40768 26.952979 39.40768 26.952979 39.40768 26.952979 curveto
58.53504 31.19201 58.53504 31.19201 58.53504 31.19201 curveto
61.01643 35.086417 61.01643 35.086417 61.01643 35.086417 curveto
58.190401 47.837992 58.190401 47.837992 58.190401 47.837992 curveto
63.153174 55.626792 63.153174 55.626792 63.153174 55.626792 curveto
56.77739 54.213786 56.77739 54.213786 56.77739 54.213786 curveto
48.988587 59.176561 48.988587 59.176561 48.988587 59.176561 curveto
47.575568 65.552341 47.575568 65.552341 47.575568 65.552341 curveto
42.612795 57.763541 42.612795 57.763541 42.612795 57.763541 curveto
29.861219 54.937516 29.861219 54.937516 29.861219 54.937516 curveto
27.379828 51.043109 27.379828 51.043109 27.379828 51.043109 curveto
31.618877 31.915753 31.618877 31.915753 31.618877 31.915753 curveto
35.513279 29.434366 35.805359 29.248262 35.610639 29.372331 curveto
closepath
eofill
grestore
grestore
grestore
showpage
%%EOF
