%!PS-Adobe-3.0 EPSF-3.0
%%Creator: inkscape 0.44.1
%%Pages: 1
%%Orientation: Portrait
%%BoundingBox: -37 -45 885 337
%%HiResBoundingBox: -37.052171 -45.912127 884.5532 336
%%DocumentMedia: plain 842 298 0 () ()
%%EndComments
%%Page: 1 1
0 298 translate
0.8 -0.8 scale
gsave [1 0 0 1 0 0] concat
gsave
<<
/ShadingType 3
/ColorSpace /DeviceRGB
/Coords [532.51569 189.20116 0 532.51569 189.20116 540.99823]
/Extend [true true]
/Domain [0 1]
/Function <<
/FunctionType 3
/Functions
[
<<
/FunctionType 2
/Domain [0 1]
/C0 [0.078431375 0.49803925 0.65490198]
/C1 [0.078431375 0.29803923 0.20000002]
/N 1
>>
]
/Domain [0 1]
/Bounds [ ]
/Encode [ 0 1 ]
>>
>>
newpath
-8.4825506 -9.6675472 moveto
1073.5139 -9.6675472 lineto
1073.5139 388.06985 lineto
-8.4825506 388.06985 lineto
-8.4825506 -9.6675472 lineto
closepath
clip
gsave [1 -1.348987e-08 1.233963e-08 0.914733 -2.334674e-06 16.1327] concat
shfill
grestore
grestore
0 0 0 setrgbcolor
[] 0 setdash
1 setlinewidth
0 setlinejoin
0 setlinecap
newpath
0.5 -21.802872 moveto
0.5 -41.802872 0.5 -41.802872 0.5 -41.802872 curveto
0.5 -41.712739 lineto
0.5 -41.712739 lineto
stroke
0 0 0 setrgbcolor
[] 0 setdash
1 setlinewidth
0 setlinejoin
0 setlinecap
newpath
1051.3363 -27.452759 moveto
1051.3363 -47.452759 1051.3363 -47.452759 1051.3363 -47.452759 curveto
1051.3363 -47.362626 lineto
1051.3363 -47.362626 lineto
stroke
0 0 0 setrgbcolor
[] 0 setdash
1 setlinewidth
0 setlinejoin
0 setlinecap
newpath
-0.5 424.46 moveto
-0.5 404.46 -0.5 404.46 -0.5 404.46 curveto
-0.5 404.55013 lineto
-0.5 404.55013 lineto
stroke
0 0 0 setrgbcolor
[] 0 setdash
1 setlinewidth
0 setlinejoin
0 setlinecap
newpath
1052.3363 428.9374 moveto
1052.3363 408.9374 1052.3363 408.9374 1052.3363 408.9374 curveto
1052.3363 409.02753 lineto
1052.3363 409.02753 lineto
stroke
0 0 0 setrgbcolor
[] 0 setdash
1 setlinewidth
0 setlinejoin
0 setlinecap
newpath
-40.5 2.5472412 moveto
-20.5 2.5472412 -20.5 2.5472412 -20.5 2.5472412 curveto
-20.59013 2.5472412 lineto
-20.59013 2.5472412 lineto
stroke
0 0 0 setrgbcolor
[] 0 setdash
1 setlinewidth
0 setlinejoin
0 setlinecap
newpath
-45.815214 372.48975 moveto
-25.815214 372.48975 -25.815214 372.48975 -25.815214 372.48975 curveto
-25.905344 372.48975 lineto
-25.905344 372.48975 lineto
stroke
0 0 0 setrgbcolor
[] 0 setdash
1 setlinewidth
0 setlinejoin
0 setlinecap
newpath
1079.5 2.5472412 moveto
1099.5 2.5472412 1099.5 2.5472412 1099.5 2.5472412 curveto
1099.4099 2.5472412 lineto
1099.4099 2.5472412 lineto
stroke
0 0 0 setrgbcolor
[] 0 setdash
1 setlinewidth
0 setlinejoin
0 setlinecap
newpath
1085.1915 372.48975 moveto
1105.1915 372.48975 1105.1915 372.48975 1105.1915 372.48975 curveto
1105.1014 372.48975 lineto
1105.1014 372.48975 lineto
stroke
gsave
1 1 1 setrgbcolor
newpath
922.55098 309.44286 moveto
922.10975 309.44286 lineto
919.65838 309.27604 917.35415 309.69315 915.19699 310.6942 curveto
911.86318 312.19583 909.70603 314.90707 908.72551 318.82792 curveto
908.33332 320.16271 908.13719 321.58089 908.13719 323.08248 curveto
908.13719 347.35851 lineto
908.13719 348.60984 908.72551 349.5692 909.90215 350.23659 curveto
911.27486 350.90397 912.64764 350.90397 914.02034 350.23659 curveto
915.19699 349.5692 915.78531 348.60984 915.78531 347.35851 curveto
915.78531 337.84831 lineto
917.94247 338.68254 920.05058 339.09966 922.10975 339.09966 curveto
924.95326 338.84938 927.35554 338.182 929.31662 337.09751 curveto
932.94455 335.01194 935.15072 331.71674 935.93518 327.2119 curveto
936.0332 326.29427 936.08223 325.2932 936.08225 324.20868 curveto
936.08223 318.28569 933.82701 314.03113 929.31662 311.44501 curveto
927.25749 310.19369 925.00228 309.56802 922.55098 309.56799 curveto
922.55098 309.44286 lineto
915.78531 327.08677 moveto
915.78531 323.08248 lineto
915.78531 319.57874 916.81487 317.40975 918.87399 316.57551 curveto
919.75642 316.15841 920.68794 315.99157 921.66853 316.07497 curveto
921.8646 316.07499 922.01168 316.07499 922.10975 316.07497 curveto
923.72762 316.32524 lineto
926.76723 317.49318 928.28705 320.12099 928.28707 324.20868 curveto
928.28705 327.79588 927.20847 330.25685 925.05133 331.5916 curveto
924.07078 332.17557 923.09026 332.46755 922.10975 332.46754 curveto
918.87399 332.05044 916.91291 331.09108 916.22655 329.58946 curveto
915.93239 328.92209 915.78531 328.08786 915.78531 327.08677 curveto
953.55066 309.44286 moveto
950.60907 309.44289 947.96165 310.15198 945.6084 311.57013 curveto
941.19602 314.07285 938.98984 318.28569 938.98984 324.20868 curveto
938.89178 329.79802 940.70576 333.92745 944.43176 336.59697 curveto
947.07918 338.26543 950.11881 339.09966 953.55066 339.09966 curveto
956.59028 339.09966 959.33575 338.43228 961.78709 337.09751 curveto
966.19943 334.59483 968.40561 330.29856 968.40565 324.20868 curveto
968.40561 318.53596 966.19943 314.28141 961.78709 311.44501 curveto
959.4338 310.11027 956.68833 309.44289 953.55066 309.44286 curveto
946.63795 324.70922 moveto
946.63795 324.20868 lineto
946.63794 320.62153 947.71652 318.24398 949.87369 317.07604 curveto
951.05031 316.40868 952.27597 316.07499 953.55066 316.07497 curveto
958.35522 316.07499 960.75751 318.78623 960.75754 324.20868 curveto
960.75751 329.79802 958.35522 332.59269 953.55066 332.59268 curveto
948.94218 332.59269 946.63794 329.96487 946.63795 324.70922 curveto
971.57982 321.58087 moveto
971.57981 318.66109 972.60935 316.1167 974.66847 313.94769 curveto
977.11977 311.27819 980.6987 309.94343 985.40524 309.94339 curveto
992.465 310.52738 996.8283 313.23862 998.4953 318.07711 curveto
998.7894 319.16163 998.9855 320.32955 999.0836 321.58087 curveto
999.0836 335.84616 lineto
999.0836 337.18093 998.3482 338.1403 996.8774 338.72425 curveto
996.2891 338.97452 995.7498 339.09966 995.2595 339.09966 curveto
993.5926 339.09966 992.465 338.43228 991.8767 337.09751 curveto
991.6806 336.6804 991.5825 336.26328 991.5826 335.84616 curveto
991.5826 321.58087 lineto
991.3864 318.49425 989.3273 316.78409 985.40524 316.45037 curveto
982.07144 316.45039 980.06136 317.78515 979.375 320.45467 curveto
979.27693 320.8718 979.22791 321.24719 979.22792 321.58087 curveto
979.22792 335.84616 lineto
979.22791 337.18093 978.44349 338.1403 976.87465 338.72425 curveto
976.48244 338.97452 975.99217 339.09966 975.40386 339.09966 curveto
973.73697 339.09966 972.56033 338.43228 971.87397 337.09751 curveto
971.67786 336.6804 971.57981 336.26328 971.57982 335.84616 curveto
971.57982 321.58087 lineto
1030.3774 325.46003 moveto
1030.3774 301.30914 lineto
1030.3774 300.3081 1029.9852 299.51559 1029.2008 298.93159 curveto
1028.5144 298.18082 1027.5829 297.80542 1026.4063 297.80538 curveto
1024.7393 297.80542 1023.5628 298.4728 1022.8764 299.80753 curveto
1022.6803 300.22468 1022.5822 300.72522 1022.5822 301.30914 curveto
1022.5822 310.81934 lineto
1020.425 309.98513 1018.3169 309.56802 1016.2578 309.56799 curveto
1013.4143 309.73487 1011.061 310.36053 1009.198 311.44501 curveto
1004.5895 314.03113 1002.2853 318.32741 1002.2853 324.33382 curveto
1002.2853 329.58947 1004.1974 333.63547 1008.0214 336.47184 curveto
1009.198 337.09751 lineto
1011.3552 338.34885 1013.5613 339.01623 1015.8166 339.09966 curveto
1015.8166 339.09966 lineto
1015.9637 339.09966 lineto
1016.2578 339.09966 lineto
1016.2578 339.09966 lineto
1018.6111 339.2665 1020.9643 338.84938 1023.3176 337.84831 curveto
1026.6514 336.3467 1028.8086 333.67718 1029.7891 329.83973 curveto
1030.1813 328.50497 1030.3774 327.04508 1030.3774 325.46003 curveto
1022.5822 321.45574 moveto
1022.5822 325.46003 lineto
1022.6803 329.04722 1021.6997 331.21621 1019.6406 331.96701 curveto
1018.7581 332.46755 1017.8266 332.6761 1016.8462 332.59268 curveto
1016.2578 332.59268 lineto
1015.1792 332.34242 1014.1987 332.00872 1013.3162 331.5916 curveto
1011.2572 329.92316 1010.1786 327.5039 1010.0805 324.33382 curveto
1010.0805 320.66324 1011.1591 318.20227 1013.3162 316.95091 curveto
1014.4929 316.36697 1015.4734 316.07499 1016.2578 316.07497 curveto
1017.6306 316.24183 1018.7581 316.49211 1019.6406 316.82577 curveto
1021.0133 317.49318 1021.8958 318.24398 1022.288 319.07819 curveto
1022.4841 319.74559 1022.5822 320.53811 1022.5822 321.45574 curveto
fill
grestore
gsave [-0.561695 -0.827344 0.827344 -0.561695 1138.236 1199.413] concat
0.68627453 0.89803928 0.95294124 setrgbcolor
[] 0 setdash
0.39799997 setlinewidth
0 setlinejoin
0 setlinecap
newpath
860.70912 308.42113 moveto
858.61307 301.26551 858.61307 301.26551 858.61307 301.26551 curveto
861.14286 296.63968 861.14286 296.63968 861.14286 296.63968 curveto
871.03385 290.6196 871.03385 290.6196 871.03385 290.6196 curveto
882.60972 290.35155 882.60972 290.35155 882.60972 290.35155 curveto
881.5921 294.53443 881.5921 294.53443 881.5921 294.53443 curveto
883.68814 301.69005 883.68814 301.69005 883.68814 301.69005 curveto
886.8018 304.66279 886.8018 304.66279 886.8018 304.66279 curveto
876.95817 310.65405 876.95817 310.65405 876.95817 310.65405 curveto
865.4377 310.92082 865.4377 310.92082 860.70912 308.42113 curveto
closepath
stroke
gsave
0.29411766 1 0.70980394 setrgbcolor
newpath
865.61238 305.3213 moveto
864.41218 301.22399 864.41218 301.22399 864.41218 301.22399 curveto
865.86075 298.57524 865.86075 298.57524 865.86075 298.57524 curveto
871.52432 295.12814 871.52432 295.12814 871.52432 295.12814 curveto
878.15267 294.97466 878.15267 294.97466 878.15267 294.97466 curveto
877.56998 297.36978 877.56998 297.36978 877.56998 297.36978 curveto
878.77017 301.46708 878.77017 301.46708 878.77017 301.46708 curveto
880.55306 303.16927 880.55306 303.16927 880.55306 303.16927 curveto
874.91659 306.59986 874.91659 306.59986 874.91659 306.59986 curveto
868.31997 306.75262 868.31997 306.75262 865.61238 305.3213 curveto
closepath
eofill
grestore
grestore
gsave [-0.286186 0.958174 -0.958174 -0.286186 1431.783 -425.3216] concat
0.68627453 0.89803928 0.95294124 setrgbcolor
[] 0 setdash
0.39799997 setlinewidth
0 setlinejoin
0 setlinecap
newpath
863.18123 318.33055 moveto
870.62684 318.7296 870.62684 318.7296 870.62684 318.7296 curveto
874.15011 322.65193 874.15011 322.65193 874.15011 322.65193 curveto
876.5441 333.98073 876.5441 333.98073 876.5441 333.98073 curveto
872.95295 344.98875 872.95295 344.98875 872.95295 344.98875 curveto
869.34534 342.63986 869.34534 342.63986 869.34534 342.63986 curveto
861.89973 342.24081 861.89973 342.24081 861.89973 342.24081 curveto
858.06173 344.19064 858.06173 344.19064 858.06173 344.19064 curveto
855.67921 332.91607 855.67921 332.91607 855.67921 332.91607 curveto
859.25316 321.96074 859.25316 321.96074 863.18123 318.33055 curveto
closepath
stroke
gsave
0.29411766 1 0.70980394 setrgbcolor
newpath
864.47695 323.98493 moveto
868.7403 324.21343 868.7403 324.21343 868.7403 324.21343 curveto
870.75773 326.45936 870.75773 326.45936 870.75773 326.45936 curveto
872.12852 332.94622 872.12852 332.94622 872.12852 332.94622 curveto
870.07223 339.24942 870.07223 339.24942 870.07223 339.24942 curveto
868.00652 337.90445 868.00652 337.90445 868.00652 337.90445 curveto
863.74316 337.67595 863.74316 337.67595 863.74316 337.67595 curveto
861.54552 338.79242 861.54552 338.79242 861.54552 338.79242 curveto
860.18129 332.3366 860.18129 332.3366 860.18129 332.3366 curveto
862.22774 326.06357 862.22774 326.06357 864.47695 323.98493 curveto
closepath
eofill
grestore
grestore
gsave [0.252449 0.96761 -0.96761 0.252449 1072.653 -558.5209] concat
0.68627453 0.89803928 0.95294124 setrgbcolor
[] 0 setdash
0.39799997 setlinewidth
0 setlinejoin
0 setlinecap
newpath
808.48748 350.15748 moveto
804.2947 356.32322 804.2947 356.32322 804.2947 356.32322 curveto
799.11538 357.30972 799.11538 357.30972 799.11538 357.30972 curveto
788.18156 353.49866 788.18156 353.49866 788.18156 353.49866 curveto
780.61811 344.73126 780.61811 344.73126 780.61811 344.73126 curveto
784.49437 342.85878 784.49437 342.85878 784.49437 342.85878 curveto
788.68723 336.69298 788.68723 336.69298 788.68723 336.69298 curveto
789.00367 332.39977 789.00367 332.39977 789.00367 332.39977 curveto
799.88524 336.19253 799.88524 336.19253 799.88524 336.19253 curveto
807.41245 344.918 807.41245 344.918 808.48748 350.15748 curveto
closepath
stroke
gsave
0.29411766 1 0.70980394 setrgbcolor
newpath
802.9781 348.34161 moveto
800.57726 351.87215 800.57726 351.87215 800.57726 351.87215 curveto
797.61163 352.43697 797.61163 352.43697 797.61163 352.43697 curveto
791.35092 350.25476 791.35092 350.25476 791.35092 350.25476 curveto
787.02007 345.23456 787.02007 345.23456 787.02007 345.23456 curveto
789.23965 344.16235 789.23965 344.16235 789.23965 344.16235 curveto
791.64041 340.63187 791.64041 340.63187 791.64041 340.63187 curveto
791.82167 338.17354 791.82167 338.17354 791.82167 338.17354 curveto
798.05244 340.34529 798.05244 340.34529 798.05244 340.34529 curveto
802.3625 345.34151 802.3625 345.34151 802.9781 348.34161 curveto
closepath
eofill
grestore
grestore
gsave [1 0 0 1 -2.5 -5.5] concat
0.68627453 0.89803928 0.95294124 setrgbcolor
[] 0 setdash
0.398 setlinewidth
0 setlinejoin
0 setlinecap
newpath
856.64722 271.00324 moveto
853.80261 277.89559 853.80261 277.89559 853.80261 277.89559 curveto
848.93413 279.91946 848.93413 279.91946 848.93413 279.91946 curveto
837.45228 278.42274 837.45228 278.42274 837.45228 278.42274 curveto
828.25708 271.38563 828.25708 271.38563 828.25708 271.38563 curveto
831.66903 268.76062 831.66903 268.76062 831.66903 268.76062 curveto
834.51364 261.86827 834.51364 261.86827 834.51364 261.86827 curveto
833.9463 257.60093 833.9463 257.60093 833.9463 257.60093 curveto
845.37318 259.09048 845.37318 259.09048 845.37318 259.09048 curveto
854.52438 266.09391 854.52438 266.09391 856.64722 271.00324 curveto
closepath
stroke
gsave
0.29411766 1 0.70980394 setrgbcolor
newpath
850.88302 270.35134 moveto
849.2542 274.2979 849.2542 274.2979 849.2542 274.2979 curveto
846.4665 275.45676 846.4665 275.45676 846.4665 275.45676 curveto
839.892 274.59974 839.892 274.59974 839.892 274.59974 curveto
834.62683 270.57029 834.62683 270.57029 834.62683 270.57029 curveto
836.58051 269.06721 836.58051 269.06721 836.58051 269.06721 curveto
838.20933 265.12066 838.20933 265.12066 838.20933 265.12066 curveto
837.88447 262.67717 837.88447 262.67717 837.88447 262.67717 curveto
844.4275 263.5301 844.4275 263.5301 844.4275 263.5301 curveto
849.66748 267.54026 849.66748 267.54026 850.88302 270.35134 curveto
closepath
eofill
grestore
grestore
gsave [0.908707 -0.417435 0.417435 0.908707 112.1119 437.036] concat
0.68627453 0.89803928 0.95294124 setrgbcolor
[] 0 setdash
0.398 setlinewidth
0 setlinejoin
0 setlinecap
newpath
860.92235 261.72794 moveto
855.36571 256.75601 855.36571 256.75601 855.36571 256.75601 curveto
855.07335 251.49173 855.07335 251.49173 855.07335 251.49173 curveto
860.2979 241.15843 860.2979 241.15843 860.2979 241.15843 curveto
869.98914 234.82181 869.98914 234.82181 869.98914 234.82181 curveto
871.33219 238.91184 871.33219 238.91184 871.33219 238.91184 curveto
876.88883 243.88377 876.88883 243.88377 876.88883 243.88377 curveto
881.10242 244.76567 881.10242 244.76567 881.10242 244.76567 curveto
875.90288 255.0495 875.90288 255.0495 875.90288 255.0495 curveto
866.25803 261.3558 866.25803 261.3558 860.92235 261.72794 curveto
closepath
stroke
gsave
0.29411766 1 0.70980394 setrgbcolor
newpath
863.45136 256.5073 moveto
860.26963 253.66038 860.26963 253.66038 860.26963 253.66038 curveto
860.10223 250.64605 860.10223 250.64605 860.10223 250.64605 curveto
863.09381 244.72921 863.09381 244.72921 863.09381 244.72921 curveto
868.64301 241.10086 868.64301 241.10086 868.64301 241.10086 curveto
869.41204 243.4428 869.41204 243.4428 869.41204 243.4428 curveto
872.59377 246.28973 872.59377 246.28973 872.59377 246.28973 curveto
875.00648 246.79471 875.00648 246.79471 875.00648 246.79471 curveto
872.02921 252.68323 872.02921 252.68323 872.02921 252.68323 curveto
866.50657 256.29422 866.50657 256.29422 863.45136 256.5073 curveto
closepath
eofill
grestore
grestore
gsave [-0.205791 0.978596 -0.978596 -0.205791 1358.269 -524.2806] concat
0.68627453 0.89803928 0.95294124 setrgbcolor
[] 0 setdash
0.398 setlinewidth
0 setlinejoin
0 setlinecap
newpath
923.49782 271.14445 moveto
930.62712 268.96067 930.62712 268.96067 930.62712 268.96067 curveto
935.28372 271.43345 935.28372 271.43345 935.28372 271.43345 curveto
941.42482 281.24974 941.42482 281.24974 941.42482 281.24974 curveto
941.83502 292.82147 941.83502 292.82147 941.83502 292.82147 curveto
937.64002 291.85529 937.64002 291.85529 937.64002 291.85529 curveto
930.51062 294.03907 930.51062 294.03907 930.51062 294.03907 curveto
927.57642 297.18903 927.57642 297.18903 927.57642 297.18903 curveto
921.46462 287.41972 921.46462 287.41972 921.46462 287.41972 curveto
921.05642 275.90338 921.05642 275.90338 923.49782 271.14445 curveto
closepath
stroke
gsave
0.29411766 1 0.70980394 setrgbcolor
newpath
926.65762 276.00926 moveto
930.73992 274.75883 930.73992 274.75883 930.73992 274.75883 curveto
933.40622 276.17475 933.40622 276.17475 933.40622 276.17475 curveto
936.92262 281.79556 936.92262 281.79556 936.92262 281.79556 curveto
937.15752 288.42153 937.15752 288.42153 937.15752 288.42153 curveto
934.75542 287.8683 934.75542 287.8683 934.75542 287.8683 curveto
930.67322 289.11873 930.67322 289.11873 930.67322 289.11873 curveto
928.99302 290.92239 928.99302 290.92239 928.99302 290.92239 curveto
925.49342 285.32848 925.49342 285.32848 925.49342 285.32848 curveto
925.25972 278.73423 925.25972 278.73423 926.65762 276.00926 curveto
closepath
eofill
grestore
grestore
gsave [0.224294 -0.974521 0.974521 0.224294 530.4428 1130.347] concat
0.68627453 0.89803928 0.95294124 setrgbcolor
[] 0 setdash
0.398 setlinewidth
0 setlinejoin
0 setlinecap
newpath
892.33026 194.13273 moveto
888.04813 188.02866 888.04813 188.02866 888.04813 188.02866 curveto
888.9591 182.83556 888.9591 182.83556 888.9591 182.83556 curveto
896.39413 173.95899 896.39413 173.95899 896.39413 173.95899 curveto
907.27132 169.98917 907.27132 169.98917 907.27132 169.98917 curveto
907.65029 174.27735 907.65029 174.27735 907.65029 174.27735 curveto
911.93242 180.38142 911.93242 180.38142 911.93242 180.38142 curveto
915.83557 182.19731 915.83557 182.19731 915.83557 182.19731 curveto
908.43615 191.03139 908.43615 191.03139 908.43615 191.03139 curveto
897.61102 194.98221 897.61102 194.98221 892.33026 194.13273 curveto
closepath
stroke
gsave
0.29411766 1 0.70980394 setrgbcolor
newpath
895.97895 189.62296 moveto
893.52701 186.12777 893.52701 186.12777 893.52701 186.12777 curveto
894.04864 183.1542 894.04864 183.1542 894.04864 183.1542 curveto
898.30593 178.07148 898.30593 178.07148 898.30593 178.07148 curveto
904.53421 175.79836 904.53421 175.79836 904.53421 175.79836 curveto
904.75121 178.25377 904.75121 178.25377 904.75121 178.25377 curveto
907.20315 181.74895 907.20315 181.74895 907.20315 181.74895 curveto
909.4381 182.78874 909.4381 182.78874 909.4381 182.78874 curveto
905.20118 187.84712 905.20118 187.84712 905.20118 187.84712 curveto
899.00271 190.10937 899.00271 190.10937 895.97895 189.62296 curveto
closepath
eofill
grestore
grestore
gsave [-0.8644 -0.502806 0.502806 -0.8644 1604.758 911.2565] concat
0.68627453 0.89803928 0.95294124 setrgbcolor
[] 0 setdash
0.398 setlinewidth
0 setlinejoin
0 setlinecap
newpath
897.85255 202.72413 moveto
905.03221 200.71197 905.03221 200.71197 905.03221 200.71197 curveto
909.62812 203.2957 909.62812 203.2957 909.62812 203.2957 curveto
915.53205 213.25646 915.53205 213.25646 915.53205 213.25646 curveto
915.66463 224.83468 915.66463 224.83468 915.66463 224.83468 curveto
911.49393 223.76818 911.49393 223.76818 911.49393 223.76818 curveto
904.31427 225.78035 904.31427 225.78035 904.31427 225.78035 curveto
901.30531 228.85902 901.30531 228.85902 901.30531 228.85902 curveto
895.42964 218.94595 895.42964 218.94595 895.42964 218.94595 curveto
895.29769 207.42314 895.29769 207.42314 897.85255 202.72413 curveto
closepath
stroke
gsave
0.29411766 1 0.70980394 setrgbcolor
newpath
900.8948 207.66333 moveto
905.00587 206.51116 905.00587 206.51116 905.00587 206.51116 curveto
907.63749 207.99062 907.63749 207.99062 907.63749 207.99062 curveto
911.01807 213.69414 911.01807 213.69414 911.01807 213.69414 curveto
911.09399 220.32383 911.09399 220.32383 911.09399 220.32383 curveto
908.70586 219.71316 908.70586 219.71316 908.70586 219.71316 curveto
904.59478 220.86532 904.59478 220.86532 904.59478 220.86532 curveto
902.87184 222.62817 902.87184 222.62817 902.87184 222.62817 curveto
899.50744 216.95194 899.50744 216.95194 899.50744 216.95194 curveto
899.43189 210.35398 899.43189 210.35398 900.8948 207.66333 curveto
closepath
eofill
grestore
grestore
gsave [-0.764016 -0.645197 0.645197 -0.764016 1508.43 1087.261] concat
0.68627453 0.89803928 0.95294124 setrgbcolor
[] 0 setdash
0.398 setlinewidth
0 setlinejoin
0 setlinecap
newpath
856.27011 250.42383 moveto
854.27848 257.60918 854.27848 257.60918 854.27848 257.60918 curveto
849.68994 260.20608 849.68994 260.20608 849.68994 260.20608 curveto
838.11139 260.10656 838.11139 260.10656 838.11139 260.10656 curveto
828.13382 254.23109 828.13382 254.23109 828.13382 254.23109 curveto
831.20385 251.21341 831.20385 251.21341 831.20385 251.21341 curveto
833.19553 244.02797 833.19553 244.02797 833.19553 244.02797 curveto
832.11708 239.86039 832.11708 239.86039 832.11708 239.86039 curveto
843.64026 239.95936 843.64026 239.95936 843.64026 239.95936 curveto
853.57006 245.80674 853.57006 245.80674 856.27011 250.42383 curveto
closepath
stroke
gsave
0.29411766 1 0.70980394 setrgbcolor
newpath
850.46939 250.47262 moveto
849.32895 254.58701 849.32895 254.58701 849.32895 254.58701 curveto
846.70158 256.07393 846.70158 256.07393 846.70158 256.07393 curveto
840.0717 256.01695 840.0717 256.01695 840.0717 256.01695 curveto
834.35853 252.65267 834.35853 252.65267 834.35853 252.65267 curveto
836.11645 250.92471 836.11645 250.92471 836.11645 250.92471 curveto
837.25684 246.81041 837.25684 246.81041 837.25684 246.81041 curveto
836.63936 244.42399 836.63936 244.42399 836.63936 244.42399 curveto
843.23753 244.48068 843.23753 244.48068 843.23753 244.48068 curveto
848.92331 247.82891 848.92331 247.82891 850.46939 250.47262 curveto
closepath
eofill
grestore
grestore
gsave [0.69268 0.721245 -0.721245 0.69268 934.1078 269.1732] concat
0.68627453 0.89803928 0.95294124 setrgbcolor
[] 0 setdash
0.398 setlinewidth
0 setlinejoin
0 setlinecap
newpath
32.39201 72.069595 moveto
39.04614 75.433957 39.04614 75.433957 39.04614 75.433957 curveto
40.69102 80.4432 40.69102 80.4432 40.69102 80.4432 curveto
38.31891 91.776615 38.31891 91.776615 38.31891 91.776615 curveto
30.59792 100.40558 30.59792 100.40558 30.59792 100.40558 curveto
28.24207 96.802516 28.24207 96.802516 28.24207 96.802516 curveto
21.58794 93.438154 21.58794 93.438154 21.58794 93.438154 curveto
17.28968 93.67685 17.28968 93.67685 17.28968 93.67685 curveto
19.65041 82.397695 19.65041 82.397695 19.65041 82.397695 curveto
27.33445 73.810031 27.33445 73.810031 32.39201 72.069595 curveto
closepath
stroke
gsave
0.29411766 1 0.70980394 setrgbcolor
newpath
31.30036 77.766897 moveto
35.1105 79.693334 35.1105 79.693334 35.1105 79.693334 curveto
36.05235 82.561632 36.05235 82.561632 36.05235 82.561632 curveto
34.69409 89.051138 34.69409 89.051138 34.69409 89.051138 curveto
30.27305 93.992084 30.27305 93.992084 30.27305 93.992084 curveto
28.92409 91.928973 28.92409 91.928973 28.92409 91.928973 curveto
25.11395 90.002545 25.11395 90.002545 25.11395 90.002545 curveto
22.65275 90.139215 22.65275 90.139215 22.65275 90.139215 curveto
24.00453 83.680778 24.00453 83.680778 24.00453 83.680778 curveto
28.4044 78.763471 28.4044 78.763471 31.30036 77.766897 curveto
closepath
eofill
grestore
grestore
gsave [-0.890932 0.454138 -0.454138 -0.890932 1887.277 176.4246] concat
0.68627453 0.89803928 0.95294124 setrgbcolor
[] 0 setdash
0.398 setlinewidth
0 setlinejoin
0 setlinecap
newpath
860.92235 261.72794 moveto
855.36571 256.75601 855.36571 256.75601 855.36571 256.75601 curveto
855.07335 251.49173 855.07335 251.49173 855.07335 251.49173 curveto
860.2979 241.15843 860.2979 241.15843 860.2979 241.15843 curveto
869.98914 234.82181 869.98914 234.82181 869.98914 234.82181 curveto
871.33219 238.91184 871.33219 238.91184 871.33219 238.91184 curveto
876.88883 243.88377 876.88883 243.88377 876.88883 243.88377 curveto
881.10242 244.76567 881.10242 244.76567 881.10242 244.76567 curveto
875.90288 255.0495 875.90288 255.0495 875.90288 255.0495 curveto
866.25803 261.3558 866.25803 261.3558 860.92235 261.72794 curveto
closepath
stroke
gsave
0.29411766 1 0.70980394 setrgbcolor
newpath
863.45136 256.5073 moveto
860.26963 253.66038 860.26963 253.66038 860.26963 253.66038 curveto
860.10223 250.64605 860.10223 250.64605 860.10223 250.64605 curveto
863.09381 244.72921 863.09381 244.72921 863.09381 244.72921 curveto
868.64301 241.10086 868.64301 241.10086 868.64301 241.10086 curveto
869.41204 243.4428 869.41204 243.4428 869.41204 243.4428 curveto
872.59377 246.28973 872.59377 246.28973 872.59377 246.28973 curveto
875.00648 246.79471 875.00648 246.79471 875.00648 246.79471 curveto
872.02921 252.68323 872.02921 252.68323 872.02921 252.68323 curveto
866.50657 256.29422 866.50657 256.29422 863.45136 256.5073 curveto
closepath
eofill
grestore
grestore
gsave [0.428944 0 0 0.428944 320.6779 74.99842] concat
0.50980395 0.91764712 1 setrgbcolor
[] 0 setdash
0.8073684 setlinewidth
0 setlinejoin
0 setlinecap
newpath
29.990593 20.391195 moveto
36.629344 16.161196 36.629344 16.161196 36.629344 16.161196 curveto
70.071649 23.572741 70.071649 23.572741 70.071649 23.572741 curveto
74.410109 30.381716 74.410109 30.381716 74.410109 30.381716 curveto
69.469079 52.676586 69.469079 52.676586 69.469079 52.676586 curveto
78.145999 66.294536 78.145999 66.294536 78.145999 66.294536 curveto
66.998564 63.824021 66.998564 63.824021 66.998564 63.824021 curveto
53.380614 72.500941 53.380614 72.500941 53.380614 72.500941 curveto
50.910099 83.648376 50.910099 83.648376 50.910099 83.648376 curveto
42.233179 70.030426 42.233179 70.030426 42.233179 70.030426 curveto
19.938309 65.089396 19.938309 65.089396 19.938309 65.089396 curveto
15.599849 58.280421 15.599849 58.280421 15.599849 58.280421 curveto
23.011394 24.838116 23.011394 24.838116 23.011394 24.838116 curveto
29.820369 20.499656 30.331042 20.174272 29.990593 20.391195 curveto
closepath
stroke
gsave
0.10196079 1 0.23137257 setrgbcolor
newpath
35.610639 29.372331 moveto
39.40768 26.952979 39.40768 26.952979 39.40768 26.952979 curveto
58.53504 31.19201 58.53504 31.19201 58.53504 31.19201 curveto
61.01643 35.086417 61.01643 35.086417 61.01643 35.086417 curveto
58.190401 47.837992 58.190401 47.837992 58.190401 47.837992 curveto
63.153174 55.626792 63.153174 55.626792 63.153174 55.626792 curveto
56.77739 54.213786 56.77739 54.213786 56.77739 54.213786 curveto
48.988587 59.176561 48.988587 59.176561 48.988587 59.176561 curveto
47.575568 65.552341 47.575568 65.552341 47.575568 65.552341 curveto
42.612795 57.763541 42.612795 57.763541 42.612795 57.763541 curveto
29.861219 54.937516 29.861219 54.937516 29.861219 54.937516 curveto
27.379828 51.043109 27.379828 51.043109 27.379828 51.043109 curveto
31.618877 31.915753 31.618877 31.915753 31.618877 31.915753 curveto
35.513279 29.434366 35.805359 29.248262 35.610639 29.372331 curveto
closepath
eofill
grestore
grestore
grestore
showpage
%%EOF
