<?xml version="1.0" encoding="UTF-8" standalone="no"?>
<!-- Created with Inkscape (http://www.inkscape.org/) -->
<svg
   xmlns:dc="http://purl.org/dc/elements/1.1/"
   xmlns:cc="http://web.resource.org/cc/"
   xmlns:rdf="http://www.w3.org/1999/02/22-rdf-syntax-ns#"
   xmlns:svg="http://www.w3.org/2000/svg"
   xmlns="http://www.w3.org/2000/svg"
   xmlns:xlink="http://www.w3.org/1999/xlink"
   xmlns:sodipodi="http://sodipodi.sourceforge.net/DTD/sodipodi-0.dtd"
   xmlns:inkscape="http://www.inkscape.org/namespaces/inkscape"
   width="1052.3622"
   height="372.04724"
   id="svg2"
   sodipodi:version="0.32"
   inkscape:version="0.44.1"
   version="1.0"
   sodipodi:docbase="/mnt/hd1/1/metabiosis/documentation"
   sodipodi:docname="flyer-pond2.svg">
  <defs
     id="defs4">
    <linearGradient
       id="linearGradient12397">
      <stop
         style="stop-color:#85ef98;stop-opacity:1;"
         offset="0"
         id="stop12399" />
      <stop
         id="stop12405"
         offset="0.125"
         style="stop-color:#85ef98;stop-opacity:0.49803922;" />
      <stop
         style="stop-color:#85ef98;stop-opacity:0;"
         offset="1"
         id="stop12401" />
    </linearGradient>
    <linearGradient
       id="linearGradient8838">
      <stop
         style="stop-color:white;stop-opacity:1;"
         offset="0"
         id="stop8840" />
      <stop
         id="stop8846"
         offset="0.3125"
         style="stop-color:white;stop-opacity:0.49803922;" />
      <stop
         style="stop-color:white;stop-opacity:0;"
         offset="1"
         id="stop8842" />
    </linearGradient>
    <linearGradient
       id="linearGradient2760">
      <stop
         style="stop-color:#147fa7;stop-opacity:1;"
         offset="0"
         id="stop2762" />
      <stop
         style="stop-color:#144c33;stop-opacity:1;"
         offset="1"
         id="stop2764" />
    </linearGradient>
    <radialGradient
       inkscape:collect="always"
       xlink:href="#linearGradient2760"
       id="radialGradient25829"
       cx="532.51569"
       cy="189.20116"
       fx="532.51569"
       fy="189.20116"
       r="540.99823"
       gradientTransform="matrix(1,1.626812e-8,1.233963e-8,0.717889,-2.334675e-6,140.3758)"
       gradientUnits="userSpaceOnUse" />
  </defs>
  <sodipodi:namedview
     id="base"
     pagecolor="#ffffff"
     bordercolor="#666666"
     borderopacity="1.0"
     gridtolerance="10000"
     guidetolerance="10"
     objecttolerance="10"
     inkscape:pageopacity="0.0"
     inkscape:pageshadow="2"
     inkscape:zoom="1"
     inkscape:cx="527.50412"
     inkscape:cy="157.76148"
     inkscape:document-units="px"
     inkscape:current-layer="layer1"
     width="29.7cm"
     height="10.5cm"
     units="cm"
     inkscape:window-width="1278"
     inkscape:window-height="968"
     inkscape:window-x="0"
     inkscape:window-y="17"
     showguides="true"
     inkscape:guide-bbox="true"
     showgrid="false">
    <sodipodi:guide
       orientation="vertical"
       position="0"
       id="guide1908" />
    <sodipodi:guide
       orientation="vertical"
       position="1051.8363"
       id="guide1910" />
    <sodipodi:guide
       orientation="horizontal"
       position="372.28973"
       id="guide1912" />
    <sodipodi:guide
       orientation="horizontal"
       position="-0.94250565"
       id="guide1914" />
    <sodipodi:guide
       orientation="horizontal"
       position="197"
       id="guide2022" />
  </sodipodi:namedview>
  <metadata
     id="metadata7">
    <rdf:RDF>
      <cc:Work
         rdf:about="">
        <dc:format>image/svg+xml</dc:format>
        <dc:type
           rdf:resource="http://purl.org/dc/dcmitype/StillImage" />
      </cc:Work>
    </rdf:RDF>
  </metadata>
  <g
     inkscape:label="background"
     inkscape:groupmode="layer"
     id="layer1"
     style="display:inline">
    <rect
       style="fill:url(#radialGradient25829);fill-opacity:1;stroke:none"
       id="rect1872"
       width="1081.9965"
       height="223.7374"
       x="-8.4825506"
       y="164.33246" />
    <path
       style="fill:none;fill-rule:evenodd;stroke:black;stroke-width:1px;stroke-linecap:butt;stroke-linejoin:miter;stroke-opacity:1"
       d="M 0.5,-21.802872 C 0.5,-41.802872 0.5,-41.802872 0.5,-41.802872 L 0.5,-41.712739 L 0.5,-41.712739"
       id="path6747" />
    <path
       style="fill:none;fill-rule:evenodd;stroke:black;stroke-width:1px;stroke-linecap:butt;stroke-linejoin:miter;stroke-opacity:1"
       d="M 1051.3363,-27.452759 C 1051.3363,-47.452759 1051.3363,-47.452759 1051.3363,-47.452759 L 1051.3363,-47.362626 L 1051.3363,-47.362626"
       id="path6749" />
    <path
       style="fill:none;fill-rule:evenodd;stroke:black;stroke-width:1px;stroke-linecap:butt;stroke-linejoin:miter;stroke-opacity:1"
       d="M -0.5,424.46 C -0.5,404.46 -0.5,404.46 -0.5,404.46 L -0.5,404.55013 L -0.5,404.55013"
       id="path6751" />
    <path
       style="fill:none;fill-rule:evenodd;stroke:black;stroke-width:1px;stroke-linecap:butt;stroke-linejoin:miter;stroke-opacity:1"
       d="M 1052.3363,428.9374 C 1052.3363,408.9374 1052.3363,408.9374 1052.3363,408.9374 L 1052.3363,409.02753 L 1052.3363,409.02753"
       id="path6753" />
    <path
       style="fill:none;fill-rule:evenodd;stroke:black;stroke-width:1px;stroke-linecap:butt;stroke-linejoin:miter;stroke-opacity:1"
       d="M -40.5,2.5472412 C -20.5,2.5472412 -20.5,2.5472412 -20.5,2.5472412 L -20.59013,2.5472412 L -20.59013,2.5472412"
       id="path6755" />
    <path
       style="fill:none;fill-rule:evenodd;stroke:black;stroke-width:1px;stroke-linecap:butt;stroke-linejoin:miter;stroke-opacity:1"
       d="M -45.815214,372.48975 C -25.815214,372.48975 -25.815214,372.48975 -25.815214,372.48975 L -25.905344,372.48975 L -25.905344,372.48975"
       id="path6757" />
    <path
       style="fill:none;fill-rule:evenodd;stroke:black;stroke-width:1px;stroke-linecap:butt;stroke-linejoin:miter;stroke-opacity:1"
       d="M 1079.5,2.5472412 C 1099.5,2.5472412 1099.5,2.5472412 1099.5,2.5472412 L 1099.4099,2.5472412 L 1099.4099,2.5472412"
       id="path6759" />
    <path
       style="fill:none;fill-rule:evenodd;stroke:black;stroke-width:1px;stroke-linecap:butt;stroke-linejoin:miter;stroke-opacity:1"
       d="M 1085.1915,372.48975 C 1105.1915,372.48975 1105.1915,372.48975 1105.1915,372.48975 L 1105.1014,372.48975 L 1105.1014,372.48975"
       id="path6761" />
  </g>
  <g
     inkscape:groupmode="layer"
     id="layer2"
     inkscape:label="logo" />
  <g
     inkscape:groupmode="layer"
     id="layer3"
     inkscape:label="creature">
    <g
       id="g25855"
       transform="matrix(-0.561695,-0.827344,0.827344,-0.561695,1138.236,1199.413)">
      <path
         id="path17777"
         d="M 860.70912,308.42113 C 858.61307,301.26551 858.61307,301.26551 858.61307,301.26551 C 861.14286,296.63968 861.14286,296.63968 861.14286,296.63968 C 871.03385,290.6196 871.03385,290.6196 871.03385,290.6196 C 882.60972,290.35155 882.60972,290.35155 882.60972,290.35155 C 881.5921,294.53443 881.5921,294.53443 881.5921,294.53443 C 883.68814,301.69005 883.68814,301.69005 883.68814,301.69005 C 886.8018,304.66279 886.8018,304.66279 886.8018,304.66279 C 876.95817,310.65405 876.95817,310.65405 876.95817,310.65405 C 865.4377,310.92082 865.4377,310.92082 860.70912,308.42113 z "
         style="fill:none;fill-rule:evenodd;stroke:#afe5f3;stroke-width:0.39799997;stroke-linecap:butt;stroke-linejoin:miter;stroke-miterlimit:4;stroke-dasharray:none;stroke-opacity:0.60227272" />
      <path
         style="fill:#4bffb5;fill-opacity:0.92156863;fill-rule:evenodd;stroke:none;stroke-width:0.57259989px;stroke-linecap:butt;stroke-linejoin:miter;stroke-opacity:1"
         d="M 865.61238,305.3213 C 864.41218,301.22399 864.41218,301.22399 864.41218,301.22399 C 865.86075,298.57524 865.86075,298.57524 865.86075,298.57524 C 871.52432,295.12814 871.52432,295.12814 871.52432,295.12814 C 878.15267,294.97466 878.15267,294.97466 878.15267,294.97466 C 877.56998,297.36978 877.56998,297.36978 877.56998,297.36978 C 878.77017,301.46708 878.77017,301.46708 878.77017,301.46708 C 880.55306,303.16927 880.55306,303.16927 880.55306,303.16927 C 874.91659,306.59986 874.91659,306.59986 874.91659,306.59986 C 868.31997,306.75262 868.31997,306.75262 865.61238,305.3213 z "
         id="path17779" />
    </g>
    <g
       id="g25859"
       transform="matrix(-0.286186,0.958174,-0.958174,-0.286186,1431.783,-425.3216)">
      <path
         style="fill:none;fill-rule:evenodd;stroke:#afe5f3;stroke-width:0.39799997;stroke-linecap:butt;stroke-linejoin:miter;stroke-miterlimit:4;stroke-dasharray:none;stroke-opacity:0.73863639"
         d="M 863.18123,318.33055 C 870.62684,318.7296 870.62684,318.7296 870.62684,318.7296 C 874.15011,322.65193 874.15011,322.65193 874.15011,322.65193 C 876.5441,333.98073 876.5441,333.98073 876.5441,333.98073 C 872.95295,344.98875 872.95295,344.98875 872.95295,344.98875 C 869.34534,342.63986 869.34534,342.63986 869.34534,342.63986 C 861.89973,342.24081 861.89973,342.24081 861.89973,342.24081 C 858.06173,344.19064 858.06173,344.19064 858.06173,344.19064 C 855.67921,332.91607 855.67921,332.91607 855.67921,332.91607 C 859.25316,321.96074 859.25316,321.96074 863.18123,318.33055 z "
         id="path17781" />
      <path
         id="path17783"
         d="M 864.47695,323.98493 C 868.7403,324.21343 868.7403,324.21343 868.7403,324.21343 C 870.75773,326.45936 870.75773,326.45936 870.75773,326.45936 C 872.12852,332.94622 872.12852,332.94622 872.12852,332.94622 C 870.07223,339.24942 870.07223,339.24942 870.07223,339.24942 C 868.00652,337.90445 868.00652,337.90445 868.00652,337.90445 C 863.74316,337.67595 863.74316,337.67595 863.74316,337.67595 C 861.54552,338.79242 861.54552,338.79242 861.54552,338.79242 C 860.18129,332.3366 860.18129,332.3366 860.18129,332.3366 C 862.22774,326.06357 862.22774,326.06357 864.47695,323.98493 z "
         style="fill:#4bffb5;fill-opacity:0.92156863;fill-rule:evenodd;stroke:none;stroke-width:0.57259989px;stroke-linecap:butt;stroke-linejoin:miter;stroke-opacity:1" />
    </g>
    <g
       id="g25843"
       transform="matrix(0.252449,0.96761,-0.96761,0.252449,1072.653,-558.5209)">
      <path
         id="path17785"
         d="M 808.48748,350.15748 C 804.2947,356.32322 804.2947,356.32322 804.2947,356.32322 C 799.11538,357.30972 799.11538,357.30972 799.11538,357.30972 C 788.18156,353.49866 788.18156,353.49866 788.18156,353.49866 C 780.61811,344.73126 780.61811,344.73126 780.61811,344.73126 C 784.49437,342.85878 784.49437,342.85878 784.49437,342.85878 C 788.68723,336.69298 788.68723,336.69298 788.68723,336.69298 C 789.00367,332.39977 789.00367,332.39977 789.00367,332.39977 C 799.88524,336.19253 799.88524,336.19253 799.88524,336.19253 C 807.41245,344.918 807.41245,344.918 808.48748,350.15748 z "
         style="fill:none;fill-rule:evenodd;stroke:#afe5f3;stroke-width:0.39799997;stroke-linecap:butt;stroke-linejoin:miter;stroke-miterlimit:4;stroke-dasharray:none;stroke-opacity:0.69318183" />
      <path
         style="fill:#4bffb5;fill-opacity:0.92156863;fill-rule:evenodd;stroke:none;stroke-width:0.57259989px;stroke-linecap:butt;stroke-linejoin:miter;stroke-opacity:1"
         d="M 802.9781,348.34161 C 800.57726,351.87215 800.57726,351.87215 800.57726,351.87215 C 797.61163,352.43697 797.61163,352.43697 797.61163,352.43697 C 791.35092,350.25476 791.35092,350.25476 791.35092,350.25476 C 787.02007,345.23456 787.02007,345.23456 787.02007,345.23456 C 789.23965,344.16235 789.23965,344.16235 789.23965,344.16235 C 791.64041,340.63187 791.64041,340.63187 791.64041,340.63187 C 791.82167,338.17354 791.82167,338.17354 791.82167,338.17354 C 798.05244,340.34529 798.05244,340.34529 798.05244,340.34529 C 802.3625,345.34151 802.3625,345.34151 802.9781,348.34161 z "
         id="path17787" />
    </g>
    <g
       id="g25867"
       transform="translate(-2.5,-5.5)">
      <path
         style="fill:none;fill-rule:evenodd;stroke:#afe5f3;stroke-width:0.398;stroke-linecap:butt;stroke-linejoin:miter;stroke-miterlimit:4;stroke-dasharray:none;stroke-opacity:0.60227272"
         d="M 856.64722,271.00324 C 853.80261,277.89559 853.80261,277.89559 853.80261,277.89559 C 848.93413,279.91946 848.93413,279.91946 848.93413,279.91946 C 837.45228,278.42274 837.45228,278.42274 837.45228,278.42274 C 828.25708,271.38563 828.25708,271.38563 828.25708,271.38563 C 831.66903,268.76062 831.66903,268.76062 831.66903,268.76062 C 834.51364,261.86827 834.51364,261.86827 834.51364,261.86827 C 833.9463,257.60093 833.9463,257.60093 833.9463,257.60093 C 845.37318,259.09048 845.37318,259.09048 845.37318,259.09048 C 854.52438,266.09391 854.52438,266.09391 856.64722,271.00324 z "
         id="path15076" />
      <path
         id="path15078"
         d="M 850.88302,270.35134 C 849.2542,274.2979 849.2542,274.2979 849.2542,274.2979 C 846.4665,275.45676 846.4665,275.45676 846.4665,275.45676 C 839.892,274.59974 839.892,274.59974 839.892,274.59974 C 834.62683,270.57029 834.62683,270.57029 834.62683,270.57029 C 836.58051,269.06721 836.58051,269.06721 836.58051,269.06721 C 838.20933,265.12066 838.20933,265.12066 838.20933,265.12066 C 837.88447,262.67717 837.88447,262.67717 837.88447,262.67717 C 844.4275,263.5301 844.4275,263.5301 844.4275,263.5301 C 849.66748,267.54026 849.66748,267.54026 850.88302,270.35134 z "
         style="fill:#4bffb5;fill-opacity:0.92156863;fill-rule:evenodd;stroke:none;stroke-width:0.57259989px;stroke-linecap:butt;stroke-linejoin:miter;stroke-opacity:1" />
    </g>
    <g
       id="g25863"
       transform="matrix(-0.270805,0.962634,-0.962634,-0.270805,1393.858,-436.5632)"
       inkscape:transform-center-y="-9.8586347"
       inkscape:transform-center-x="-7.3375596">
      <path
         id="path15082"
         d="M 860.92235,261.72794 C 855.36571,256.75601 855.36571,256.75601 855.36571,256.75601 C 855.07335,251.49173 855.07335,251.49173 855.07335,251.49173 C 860.2979,241.15843 860.2979,241.15843 860.2979,241.15843 C 869.98914,234.82181 869.98914,234.82181 869.98914,234.82181 C 871.33219,238.91184 871.33219,238.91184 871.33219,238.91184 C 876.88883,243.88377 876.88883,243.88377 876.88883,243.88377 C 881.10242,244.76567 881.10242,244.76567 881.10242,244.76567 C 875.90288,255.0495 875.90288,255.0495 875.90288,255.0495 C 866.25803,261.3558 866.25803,261.3558 860.92235,261.72794 z "
         style="fill:none;fill-rule:evenodd;stroke:#afe5f3;stroke-width:0.398;stroke-linecap:butt;stroke-linejoin:miter;stroke-miterlimit:4;stroke-dasharray:none;stroke-opacity:0.73863639" />
      <path
         style="fill:#4bffb5;fill-opacity:0.92156863;fill-rule:evenodd;stroke:none;stroke-width:0.57259989px;stroke-linecap:butt;stroke-linejoin:miter;stroke-opacity:1"
         d="M 863.45136,256.5073 C 860.26963,253.66038 860.26963,253.66038 860.26963,253.66038 C 860.10223,250.64605 860.10223,250.64605 860.10223,250.64605 C 863.09381,244.72921 863.09381,244.72921 863.09381,244.72921 C 868.64301,241.10086 868.64301,241.10086 868.64301,241.10086 C 869.41204,243.4428 869.41204,243.4428 869.41204,243.4428 C 872.59377,246.28973 872.59377,246.28973 872.59377,246.28973 C 875.00648,246.79471 875.00648,246.79471 875.00648,246.79471 C 872.02921,252.68323 872.02921,252.68323 872.02921,252.68323 C 866.50657,256.29422 866.50657,256.29422 863.45136,256.5073 z "
         id="path15084" />
    </g>
    <g
       id="g25851"
       transform="matrix(-0.205791,0.978596,-0.978596,-0.205791,1358.269,-524.2806)">
      <path
         style="fill:none;fill-rule:evenodd;stroke:#afe5f3;stroke-width:0.398;stroke-linecap:butt;stroke-linejoin:miter;stroke-miterlimit:4;stroke-dasharray:none;stroke-opacity:0.69318183"
         d="M 923.49782,271.14445 C 930.62712,268.96067 930.62712,268.96067 930.62712,268.96067 C 935.28372,271.43345 935.28372,271.43345 935.28372,271.43345 C 941.42482,281.24974 941.42482,281.24974 941.42482,281.24974 C 941.83502,292.82147 941.83502,292.82147 941.83502,292.82147 C 937.64002,291.85529 937.64002,291.85529 937.64002,291.85529 C 930.51062,294.03907 930.51062,294.03907 930.51062,294.03907 C 927.57642,297.18903 927.57642,297.18903 927.57642,297.18903 C 921.46462,287.41972 921.46462,287.41972 921.46462,287.41972 C 921.05642,275.90338 921.05642,275.90338 923.49782,271.14445 z "
         id="path15100" />
      <path
         id="path15102"
         d="M 926.65762,276.00926 C 930.73992,274.75883 930.73992,274.75883 930.73992,274.75883 C 933.40622,276.17475 933.40622,276.17475 933.40622,276.17475 C 936.92262,281.79556 936.92262,281.79556 936.92262,281.79556 C 937.15752,288.42153 937.15752,288.42153 937.15752,288.42153 C 934.75542,287.8683 934.75542,287.8683 934.75542,287.8683 C 930.67322,289.11873 930.67322,289.11873 930.67322,289.11873 C 928.99302,290.92239 928.99302,290.92239 928.99302,290.92239 C 925.49342,285.32848 925.49342,285.32848 925.49342,285.32848 C 925.25972,278.73423 925.25972,278.73423 926.65762,276.00926 z "
         style="fill:#4bffb5;fill-opacity:0.92156863;fill-rule:evenodd;stroke:none;stroke-width:0.57259989px;stroke-linecap:butt;stroke-linejoin:miter;stroke-opacity:1" />
    </g>
    <g
       id="g25839"
       transform="matrix(0.224294,-0.974521,0.974521,0.224294,540.4428,1122.347)"
       inkscape:transform-center-x="4"
       inkscape:transform-center-y="-2">
      <path
         id="path17791"
         d="M 892.33026,194.13273 C 888.04813,188.02866 888.04813,188.02866 888.04813,188.02866 C 888.9591,182.83556 888.9591,182.83556 888.9591,182.83556 C 896.39413,173.95899 896.39413,173.95899 896.39413,173.95899 C 907.27132,169.98917 907.27132,169.98917 907.27132,169.98917 C 907.65029,174.27735 907.65029,174.27735 907.65029,174.27735 C 911.93242,180.38142 911.93242,180.38142 911.93242,180.38142 C 915.83557,182.19731 915.83557,182.19731 915.83557,182.19731 C 908.43615,191.03139 908.43615,191.03139 908.43615,191.03139 C 897.61102,194.98221 897.61102,194.98221 892.33026,194.13273 z "
         style="fill:none;fill-rule:evenodd;stroke:#afe5f3;stroke-width:0.398;stroke-linecap:butt;stroke-linejoin:miter;stroke-miterlimit:4;stroke-dasharray:none;stroke-opacity:0.60227272" />
      <path
         style="fill:#4bffb5;fill-opacity:0.92045456;fill-rule:evenodd;stroke:none;stroke-width:0.57259989px;stroke-linecap:butt;stroke-linejoin:miter;stroke-opacity:1"
         d="M 895.97895,189.62296 C 893.52701,186.12777 893.52701,186.12777 893.52701,186.12777 C 894.04864,183.1542 894.04864,183.1542 894.04864,183.1542 C 898.30593,178.07148 898.30593,178.07148 898.30593,178.07148 C 904.53421,175.79836 904.53421,175.79836 904.53421,175.79836 C 904.75121,178.25377 904.75121,178.25377 904.75121,178.25377 C 907.20315,181.74895 907.20315,181.74895 907.20315,181.74895 C 909.4381,182.78874 909.4381,182.78874 909.4381,182.78874 C 905.20118,187.84712 905.20118,187.84712 905.20118,187.84712 C 899.00271,190.10937 899.00271,190.10937 895.97895,189.62296 z "
         id="path17793" />
    </g>
    <g
       id="g25847"
       transform="matrix(-0.41541,-0.909635,0.909635,-0.41541,1165.078,1164.856)">
      <path
         style="fill:none;fill-rule:evenodd;stroke:#afe5f3;stroke-width:0.398;stroke-linecap:butt;stroke-linejoin:miter;stroke-miterlimit:4;stroke-dasharray:none;stroke-opacity:0.73863639"
         d="M 897.85255,202.72413 C 905.03221,200.71197 905.03221,200.71197 905.03221,200.71197 C 909.62812,203.2957 909.62812,203.2957 909.62812,203.2957 C 915.53205,213.25646 915.53205,213.25646 915.53205,213.25646 C 915.66463,224.83468 915.66463,224.83468 915.66463,224.83468 C 911.49393,223.76818 911.49393,223.76818 911.49393,223.76818 C 904.31427,225.78035 904.31427,225.78035 904.31427,225.78035 C 901.30531,228.85902 901.30531,228.85902 901.30531,228.85902 C 895.42964,218.94595 895.42964,218.94595 895.42964,218.94595 C 895.29769,207.42314 895.29769,207.42314 897.85255,202.72413 z "
         id="path17795" />
      <path
         id="path17797"
         d="M 900.8948,207.66333 C 905.00587,206.51116 905.00587,206.51116 905.00587,206.51116 C 907.63749,207.99062 907.63749,207.99062 907.63749,207.99062 C 911.01807,213.69414 911.01807,213.69414 911.01807,213.69414 C 911.09399,220.32383 911.09399,220.32383 911.09399,220.32383 C 908.70586,219.71316 908.70586,219.71316 908.70586,219.71316 C 904.59478,220.86532 904.59478,220.86532 904.59478,220.86532 C 902.87184,222.62817 902.87184,222.62817 902.87184,222.62817 C 899.50744,216.95194 899.50744,216.95194 899.50744,216.95194 C 899.43189,210.35398 899.43189,210.35398 900.8948,207.66333 z "
         style="fill:#4bffb5;fill-opacity:0.92156863;fill-rule:evenodd;stroke:none;stroke-width:0.57259989px;stroke-linecap:butt;stroke-linejoin:miter;stroke-opacity:1" />
    </g>
    <g
       id="g25877"
       transform="matrix(-0.997374,-7.242363e-2,7.242363e-2,-0.997374,1810.206,651.6727)"
       inkscape:transform-center-x="26"
       inkscape:transform-center-y="10.981476">
      <path
         id="path17799"
         d="M 856.27011,250.42383 C 854.27848,257.60918 854.27848,257.60918 854.27848,257.60918 C 849.68994,260.20608 849.68994,260.20608 849.68994,260.20608 C 838.11139,260.10656 838.11139,260.10656 838.11139,260.10656 C 828.13382,254.23109 828.13382,254.23109 828.13382,254.23109 C 831.20385,251.21341 831.20385,251.21341 831.20385,251.21341 C 833.19553,244.02797 833.19553,244.02797 833.19553,244.02797 C 832.11708,239.86039 832.11708,239.86039 832.11708,239.86039 C 843.64026,239.95936 843.64026,239.95936 843.64026,239.95936 C 853.57006,245.80674 853.57006,245.80674 856.27011,250.42383 z "
         style="fill:none;fill-rule:evenodd;stroke:#afe5f3;stroke-width:0.398;stroke-linecap:butt;stroke-linejoin:miter;stroke-miterlimit:4;stroke-dasharray:none;stroke-opacity:0.69318183" />
      <path
         style="fill:#4bffb5;fill-opacity:0.92156863;fill-rule:evenodd;stroke:none;stroke-width:0.57259989px;stroke-linecap:butt;stroke-linejoin:miter;stroke-opacity:1"
         d="M 850.46939,250.47262 C 849.32895,254.58701 849.32895,254.58701 849.32895,254.58701 C 846.70158,256.07393 846.70158,256.07393 846.70158,256.07393 C 840.0717,256.01695 840.0717,256.01695 840.0717,256.01695 C 834.35853,252.65267 834.35853,252.65267 834.35853,252.65267 C 836.11645,250.92471 836.11645,250.92471 836.11645,250.92471 C 837.25684,246.81041 837.25684,246.81041 837.25684,246.81041 C 836.63936,244.42399 836.63936,244.42399 836.63936,244.42399 C 843.23753,244.48068 843.23753,244.48068 843.23753,244.48068 C 848.92331,247.82891 848.92331,247.82891 850.46939,250.47262 z "
         id="path17801" />
    </g>
    <g
       id="g25835"
       transform="matrix(0.995793,-9.162678e-2,9.162678e-2,0.995793,864.9248,263.3608)"
       inkscape:transform-center-x="18">
      <path
         id="path24940"
         d="M 32.39201,72.069595 C 39.04614,75.433957 39.04614,75.433957 39.04614,75.433957 C 40.69102,80.4432 40.69102,80.4432 40.69102,80.4432 C 38.31891,91.776615 38.31891,91.776615 38.31891,91.776615 C 30.59792,100.40558 30.59792,100.40558 30.59792,100.40558 C 28.24207,96.802516 28.24207,96.802516 28.24207,96.802516 C 21.58794,93.438154 21.58794,93.438154 21.58794,93.438154 C 17.28968,93.67685 17.28968,93.67685 17.28968,93.67685 C 19.65041,82.397695 19.65041,82.397695 19.65041,82.397695 C 27.33445,73.810031 27.33445,73.810031 32.39201,72.069595 z "
         style="fill:none;fill-rule:evenodd;stroke:#afe5f3;stroke-width:0.398;stroke-linecap:butt;stroke-linejoin:miter;stroke-miterlimit:4;stroke-dasharray:none;stroke-opacity:0.60227272" />
      <path
         style="fill:#4bffb5;fill-opacity:0.92045456;fill-rule:evenodd;stroke:none;stroke-width:0.57259989px;stroke-linecap:butt;stroke-linejoin:miter;stroke-opacity:1"
         d="M 31.30036,77.766897 C 35.1105,79.693334 35.1105,79.693334 35.1105,79.693334 C 36.05235,82.561632 36.05235,82.561632 36.05235,82.561632 C 34.69409,89.051138 34.69409,89.051138 34.69409,89.051138 C 30.27305,93.992084 30.27305,93.992084 30.27305,93.992084 C 28.92409,91.928973 28.92409,91.928973 28.92409,91.928973 C 25.11395,90.002545 25.11395,90.002545 25.11395,90.002545 C 22.65275,90.139215 22.65275,90.139215 22.65275,90.139215 C 24.00453,83.680778 24.00453,83.680778 24.00453,83.680778 C 28.4044,78.763471 28.4044,78.763471 31.30036,77.766897 z "
         id="path24942" />
    </g>
    <g
       transform="matrix(0.630796,0.77595,-0.77595,0.630796,589.4307,-510.1239)"
       id="g25871">
      <path
         style="fill:none;fill-rule:evenodd;stroke:#afe5f3;stroke-width:0.398;stroke-linecap:butt;stroke-linejoin:miter;stroke-miterlimit:4;stroke-dasharray:none;stroke-opacity:0.73863639"
         d="M 860.92235,261.72794 C 855.36571,256.75601 855.36571,256.75601 855.36571,256.75601 C 855.07335,251.49173 855.07335,251.49173 855.07335,251.49173 C 860.2979,241.15843 860.2979,241.15843 860.2979,241.15843 C 869.98914,234.82181 869.98914,234.82181 869.98914,234.82181 C 871.33219,238.91184 871.33219,238.91184 871.33219,238.91184 C 876.88883,243.88377 876.88883,243.88377 876.88883,243.88377 C 881.10242,244.76567 881.10242,244.76567 881.10242,244.76567 C 875.90288,255.0495 875.90288,255.0495 875.90288,255.0495 C 866.25803,261.3558 866.25803,261.3558 860.92235,261.72794 z "
         id="path25873" />
      <path
         id="path25875"
         d="M 863.45136,256.5073 C 860.26963,253.66038 860.26963,253.66038 860.26963,253.66038 C 860.10223,250.64605 860.10223,250.64605 860.10223,250.64605 C 863.09381,244.72921 863.09381,244.72921 863.09381,244.72921 C 868.64301,241.10086 868.64301,241.10086 868.64301,241.10086 C 869.41204,243.4428 869.41204,243.4428 869.41204,243.4428 C 872.59377,246.28973 872.59377,246.28973 872.59377,246.28973 C 875.00648,246.79471 875.00648,246.79471 875.00648,246.79471 C 872.02921,252.68323 872.02921,252.68323 872.02921,252.68323 C 866.50657,256.29422 866.50657,256.29422 863.45136,256.5073 z "
         style="fill:#4bffb5;fill-opacity:0.92156863;fill-rule:evenodd;stroke:none;stroke-width:0.57259989px;stroke-linecap:butt;stroke-linejoin:miter;stroke-opacity:1" />
    </g>
  </g>
  <g
     inkscape:groupmode="layer"
     id="layer4"
     inkscape:label="creature 2">
    <g
       id="g25831"
       transform="matrix(0.428944,0,0,0.428944,156.6779,188.9984)">
      <path
         id="path18717"
         d="M 29.990593,20.391195 C 36.629344,16.161196 36.629344,16.161196 36.629344,16.161196 C 70.071649,23.572741 70.071649,23.572741 70.071649,23.572741 C 74.410109,30.381716 74.410109,30.381716 74.410109,30.381716 C 69.469079,52.676586 69.469079,52.676586 69.469079,52.676586 C 78.145999,66.294536 78.145999,66.294536 78.145999,66.294536 C 66.998564,63.824021 66.998564,63.824021 66.998564,63.824021 C 53.380614,72.500941 53.380614,72.500941 53.380614,72.500941 C 50.910099,83.648376 50.910099,83.648376 50.910099,83.648376 C 42.233179,70.030426 42.233179,70.030426 42.233179,70.030426 C 19.938309,65.089396 19.938309,65.089396 19.938309,65.089396 C 15.599849,58.280421 15.599849,58.280421 15.599849,58.280421 C 23.011394,24.838116 23.011394,24.838116 23.011394,24.838116 C 29.820369,20.499656 30.331042,20.174272 29.990593,20.391195 z "
         style="fill:none;fill-rule:evenodd;stroke:#82eaff;stroke-width:0.8073684;stroke-linecap:butt;stroke-linejoin:miter;stroke-miterlimit:4;stroke-dasharray:none;stroke-opacity:0.78977272" />
      <path
         style="fill:#1aff3b;fill-opacity:0.89204544;fill-rule:evenodd;stroke:none;stroke-width:0.57195121px;stroke-linecap:butt;stroke-linejoin:miter;stroke-opacity:1"
         d="M 35.610639,29.372331 C 39.40768,26.952979 39.40768,26.952979 39.40768,26.952979 C 58.53504,31.19201 58.53504,31.19201 58.53504,31.19201 C 61.01643,35.086417 61.01643,35.086417 61.01643,35.086417 C 58.190401,47.837992 58.190401,47.837992 58.190401,47.837992 C 63.153174,55.626792 63.153174,55.626792 63.153174,55.626792 C 56.77739,54.213786 56.77739,54.213786 56.77739,54.213786 C 48.988587,59.176561 48.988587,59.176561 48.988587,59.176561 C 47.575568,65.552341 47.575568,65.552341 47.575568,65.552341 C 42.612795,57.763541 42.612795,57.763541 42.612795,57.763541 C 29.861219,54.937516 29.861219,54.937516 29.861219,54.937516 C 27.379828,51.043109 27.379828,51.043109 27.379828,51.043109 C 31.618877,31.915753 31.618877,31.915753 31.618877,31.915753 C 35.513279,29.434366 35.805359,29.248262 35.610639,29.372331 z "
         id="path19604" />
    </g>
  </g>
</svg>
