%!PS-Adobe-3.0 EPSF-3.0
%%Creator: inkscape 0.44.1
%%Pages: 1
%%Orientation: Portrait
%%BoundingBox: 0 0 550 97
%%HiResBoundingBox: 2.6533029e-06 -7.7795616e-06 549.91152 96.051402
%%DocumentMedia: plain 550 97 0 () ()
%%EndComments
%%Page: 1 1
0 97 translate
0.8 -0.8 scale
gsave [1 0 0 1 0 0] concat
gsave [1 0 0 1 -14.28095 -85.62252] concat
gsave [2.69198 0 0 2.69198 -24.1631 -144.8715] concat
gsave
0 0 0 setrgbcolor
newpath
38.914268 117.90223 moveto
38.914268 107.25189 lineto
38.914241 103.0057 37.40959 99.803637 34.400311 97.645703 curveto
32.422747 96.392749 30.101285 95.76626 27.43592 95.766234 curveto
24.770522 95.76626 22.40607 96.32314 20.342558 97.436873 curveto
17.161287 99.107539 15.226736 101.82233 14.538898 105.58125 curveto
14.366936 106.41659 14.280955 107.28672 14.280958 108.19163 curveto
14.280955 112.64668 15.957567 116.02277 19.310796 118.31989 curveto
20.342558 118.94638 lineto
22.40607 120.06015 24.512582 120.61702 26.662098 120.61702 curveto
28.639625 120.47781 30.445206 120.12975 32.078847 119.57287 curveto
31.906866 122.07883 31.390987 123.61025 30.531205 124.16713 curveto
29.929325 124.51519 28.295704 124.68921 25.630337 124.68921 curveto
24.942482 124.6196 24.297632 124.51519 23.695783 124.37596 curveto
22.148141 123.74947 lineto
22.277111 124.06272 lineto
21.58926 123.15779 20.600489 122.70532 19.310796 122.70532 curveto
17.935107 122.70532 16.946337 123.19259 16.344481 124.16713 curveto
15.742617 125.14167 15.785606 126.04661 16.473452 126.88193 curveto
17.419227 128.20451 18.880888 129.10944 20.858439 129.59672 curveto
21.46029 129.66633 21.804211 129.70113 21.8902 129.70113 curveto
24.856515 130.22321 lineto
25.372396 130.22321 lineto
28.553644 130.2232 30.789126 130.04918 32.078847 129.70113 curveto
33.024607 129.35308 33.927397 128.93542 34.787222 128.44815 curveto
37.53856 126.42946 38.914241 122.91415 38.914268 117.90223 curveto
27.306949 101.30023 moveto
28.166734 101.30026 28.897564 101.47428 29.499443 101.82231 curveto
31.305006 102.51843 32.207797 104.32829 32.207817 107.25189 curveto
32.207817 110.59317 lineto
32.207797 112.40305 31.562946 113.62122 30.273264 114.2477 curveto
29.628413 114.35212 lineto
28.682614 114.76979 27.693844 115.01342 26.662098 115.08302 curveto
23.050921 114.66537 21.20235 112.47265 21.116379 108.50487 curveto
21.116379 108.19163 lineto
21.11637 105.19841 22.10514 103.14492 24.082694 102.03114 curveto
25.028462 101.6135 25.888263 101.40467 26.662098 101.40465 curveto
26.834044 101.40467 26.963013 101.36986 27.049009 101.30023 curveto
27.306949 101.30023 lineto
53.501001 95.87065 moveto
50.921583 95.870675 48.600122 96.462359 46.536609 97.645703 curveto
42.667498 99.73403 40.732947 103.24933 40.73295 108.19163 curveto
40.646967 112.85551 42.237598 116.3012 45.504848 118.52872 curveto
47.826301 119.92092 50.491683 120.61702 53.501001 120.61702 curveto
56.166367 120.61702 58.573808 120.06015 60.723332 118.94638 curveto
64.592413 116.85809 66.526964 113.27317 66.526992 108.19163 curveto
66.526964 103.45816 64.592413 99.908052 60.723332 97.541288 curveto
58.659788 96.427555 56.252346 95.870675 53.501001 95.87065 curveto
47.439401 108.60929 moveto
47.439401 108.19163 lineto
47.439392 105.19841 48.385172 103.21453 50.276745 102.23997 curveto
51.308494 101.68311 52.383244 101.40467 53.501001 101.40465 curveto
57.714008 101.40467 59.820519 103.66699 59.820541 108.19163 curveto
59.820519 112.85551 57.714008 115.18745 53.501001 115.18744 curveto
49.459923 115.18745 47.439392 112.99473 47.439401 108.60929 curveto
101.04667 86.160047 moveto
102.85226 86.368877 lineto
104.14194 86.647351 105.00174 87.308646 105.43166 88.352764 curveto
105.77556 89.466556 105.43164 90.406291 104.3999 91.171971 curveto
103.4541 91.93771 102.33636 92.14654 101.04667 91.798461 curveto
98.854181 91.589631 lineto
98.08034 91.58966 97.478482 91.798491 97.048598 92.216122 curveto
96.618684 92.5642 96.403737 93.2603 96.403747 94.304423 curveto
96.403747 96.9148 lineto
101.94947 96.9148 lineto
103.23915 96.845214 104.22792 97.297679 104.91578 98.272194 curveto
105.6036 99.246762 105.6036 100.15169 104.91578 100.98699 curveto
104.22792 101.96155 103.23915 102.44882 101.94947 102.4488 curveto
96.403747 102.4488 lineto
96.403747 117.90223 lineto
96.403737 119.016 95.887856 119.85132 94.856105 120.40819 curveto
93.652369 120.96507 92.448654 120.96507 91.244939 120.40819 curveto
90.127189 119.85132 89.568319 119.016 89.568326 117.90223 curveto
89.568326 102.4488 lineto
88.794505 102.4488 lineto
87.418818 102.44882 86.387057 101.96155 85.69922 100.98699 curveto
85.097356 100.15169 85.097356 99.246762 85.69922 98.272194 curveto
86.387057 97.297679 87.418818 96.845214 88.794505 96.9148 curveto
89.568326 96.9148 lineto
89.568326 94.304423 lineto
89.568319 91.93771 90.29915 90.058241 91.76082 88.666009 curveto
92.964535 87.413061 94.641138 86.612547 96.790658 86.264462 curveto
98.166327 86.055667 99.584999 86.020862 101.04667 86.160047 curveto
119.37153 95.87065 moveto
116.79212 95.870675 114.47065 96.462359 112.40714 97.645703 curveto
108.53803 99.73403 106.60348 103.24933 106.60348 108.19163 curveto
106.51749 112.85551 108.10813 116.3012 111.37538 118.52872 curveto
113.69683 119.92092 116.36221 120.61702 119.37153 120.61702 curveto
122.0369 120.61702 124.44434 120.06015 126.59386 118.94638 curveto
130.46294 116.85809 132.39749 113.27317 132.39752 108.19163 curveto
132.39749 103.45816 130.46294 99.908052 126.59386 97.541288 curveto
124.53032 96.427555 122.12288 95.870675 119.37153 95.87065 curveto
113.30993 108.60929 moveto
113.30993 108.19163 lineto
113.30992 105.19841 114.25571 103.21453 116.14728 102.23997 curveto
117.17903 101.68311 118.25377 101.40467 119.37153 101.40465 curveto
123.58453 101.40467 125.69105 103.66699 125.69107 108.19163 curveto
125.69105 112.85551 123.58453 115.18745 119.37153 115.18744 curveto
115.33045 115.18745 113.30992 112.99473 113.30993 108.60929 curveto
146.32127 95.766234 moveto
151.05015 95.76626 154.61832 97.471706 157.02579 100.88257 curveto
157.71361 101.92675 157.71361 102.93609 157.02579 103.91061 curveto
156.25194 104.81556 155.1772 105.23322 153.80154 105.16359 curveto
152.42584 105.02439 151.48005 104.4327 150.96419 103.38853 curveto
150.36232 102.41401 149.5885 101.82233 148.64273 101.61348 curveto
147.95488 101.47428 147.18105 101.40467 146.32127 101.40465 curveto
144.08577 101.40467 142.58112 101.89194 141.80731 102.86646 curveto
141.72132 103.0057 141.59235 103.17972 141.4204 103.38853 curveto
140.99048 104.15426 140.73254 104.95478 140.64658 105.79008 curveto
140.64658 117.79781 lineto
140.64657 118.84197 140.13069 119.64249 139.09893 120.19936 curveto
137.89521 120.75624 136.73448 120.75624 135.61674 120.19936 curveto
134.49899 119.64249 133.94013 118.84197 133.94013 117.79781 curveto
133.94013 105.79008 lineto
134.37002 100.98701 136.99242 97.889366 141.80731 96.49714 curveto
143.18298 96.009894 144.68763 95.76626 146.32127 95.766234 curveto
165.45218 85.951217 moveto
166.48394 85.951252 167.34373 86.229692 168.03159 86.786537 curveto
168.71941 87.343451 169.02035 88.004746 168.93438 88.770424 curveto
168.93438 95.975065 lineto
173.1904 95.975065 lineto
174.56606 95.97509 175.59782 96.462359 176.28568 97.436873 curveto
176.97351 98.272218 176.97351 99.177146 176.28568 100.15167 curveto
175.59782 101.12623 174.56606 101.57869 173.1904 101.50906 curveto
168.93438 101.50906 lineto
168.93438 112.36823 lineto
168.93437 113.41239 169.14932 114.10849 169.57923 114.45653 curveto
169.83716 114.73498 170.26705 114.90901 170.86893 114.97861 curveto
171.55676 115.18745 172.41655 115.15264 173.44834 114.87419 curveto
174.824 114.52615 176.02772 114.76979 177.0595 115.6051 curveto
177.91928 116.3012 178.17722 117.20613 177.83332 118.31989 curveto
177.48939 119.36404 176.67257 120.02534 175.38289 120.30378 curveto
172.93246 120.61702 lineto
169.14932 120.82585 166.31197 119.99053 164.42042 118.11106 curveto
162.87277 116.64926 162.09895 114.73498 162.09896 112.36823 curveto
162.09896 101.50906 lineto
160.03543 101.50906 lineto
158.65975 101.57869 157.67098 101.12623 157.06912 100.15167 curveto
156.38128 99.177146 156.38128 98.272218 157.06912 97.436873 curveto
157.67098 96.462359 158.65975 95.97509 160.03543 95.975065 curveto
162.09896 95.975065 lineto
162.09896 88.770424 lineto
162.09895 87.656696 162.70082 86.786572 163.90454 86.160047 curveto
164.42041 86.020862 164.93629 85.951252 165.45218 85.951217 curveto
179.53916 117.6934 moveto
179.53916 88.874839 lineto
179.53916 87.761111 180.14101 86.890987 181.34474 86.264462 curveto
181.86061 86.125277 182.37649 86.055667 182.89238 86.055632 curveto
183.92413 86.055667 184.74095 86.299301 185.34282 86.786537 curveto
186.03065 87.343451 186.37457 88.039551 186.37458 88.874839 curveto
186.37458 96.810385 lineto
188.18015 96.114309 189.98573 95.76626 191.79133 95.766234 curveto
196.00433 95.76626 199.22859 96.984435 201.46409 99.42076 curveto
203.35563 101.30026 204.25842 103.38855 204.17247 105.68566 curveto
204.17247 117.6934 lineto
204.25842 118.80717 203.69955 119.64249 202.49585 120.19936 curveto
201.29211 120.68664 200.17437 120.68664 199.14263 120.19936 curveto
197.93888 119.64249 197.33703 118.80717 197.33705 117.6934 curveto
197.33705 105.68566 lineto
196.99311 103.31894 195.96135 101.92675 194.24176 101.50906 curveto
193.63988 101.30026 192.82307 101.19584 191.79133 101.19582 curveto
189.64181 101.19584 188.22313 101.75272 187.53531 102.86646 curveto
186.84746 103.98024 186.46054 104.91998 186.37458 105.68566 curveto
186.37458 117.6934 lineto
186.37457 119.0856 185.55775 119.99053 183.92414 120.40819 curveto
182.54845 120.68664 181.34473 120.40819 180.31298 119.57287 curveto
179.7971 119.0856 179.53916 118.45911 179.53916 117.6934 curveto
fill
grestore
gsave
0 0 0 setrgbcolor
newpath
264.48382 85.626824 moveto
265.22533 85.580508 265.80464 85.904921 266.22176 86.600069 curveto
266.5925 87.20258 266.5925 87.828238 266.22176 88.477043 curveto
265.03996 90.701606 lineto
267.61211 90.701606 lineto
268.39996 90.701627 268.97927 91.049215 269.35004 91.744369 curveto
269.72078 92.346876 269.72078 92.972534 269.35004 93.621344 curveto
268.97927 94.316535 268.39996 94.640954 267.61211 94.594589 curveto
265.10948 94.594589 lineto
266.49983 96.819145 lineto
266.96326 97.560677 266.96326 98.302195 266.49983 99.043697 curveto
266.31443 99.229092 266.10588 99.391301 265.87417 99.53032 curveto
265.17898 99.947441 264.46063 99.924267 263.71912 99.460803 curveto
263.53374 99.275441 263.34835 99.066888 263.16298 98.835145 curveto
261.84215 96.749627 lineto
260.66035 98.97418 lineto
260.28959 99.762063 259.66393 100.10964 258.78338 100.01694 curveto
258.55165 100.01696 258.29675 99.947441 258.01869 99.80839 curveto
257.27716 99.391301 256.95275 98.765644 257.04544 97.931417 curveto
257.04544 97.653369 257.09178 97.398467 257.18448 97.166732 curveto
258.57483 94.594589 lineto
255.79413 94.594589 lineto
255.0526 94.640954 254.49646 94.316535 254.12571 93.621344 curveto
253.75494 92.972534 253.75494 92.346876 254.12571 91.744369 curveto
254.49646 91.049215 255.0526 90.701627 255.79413 90.701606 curveto
258.08821 90.701606 lineto
256.90641 88.894148 lineto
256.44295 88.106308 256.4893 87.364789 257.04544 86.669587 curveto
257.13813 86.437887 257.30033 86.252509 257.53206 86.113447 curveto
258.31993 85.742712 259.03827 85.789061 259.68711 86.252482 curveto
259.91882 86.345195 260.10421 86.530579 260.24325 86.808622 curveto
261.49456 88.963665 lineto
262.8154 86.739105 lineto
263.1398 85.997608 263.69594 85.626851 264.48382 85.626824 curveto
fill
grestore
gsave
0 0 0 setrgbcolor
newpath
237.20922 100.71383 moveto
245.92745 110.42581 lineto
247.22038 109.44718 247.66049 109.07312 248.69645 108.26123 curveto
249.74319 107.44088 250.98363 107.77814 251.90351 108.72004 curveto
252.82371 109.66227 252.68464 111.08792 252.0634 111.73131 curveto
251.4125 112.40542 250.65269 113.19647 249.54733 114.31177 curveto
249.54733 114.31177 250.80305 115.75809 251.52819 116.66186 curveto
252.24566 117.55606 251.58544 119.25785 250.48406 120.08487 curveto
249.50546 120.81968 247.29897 120.93874 246.59884 120.22908 curveto
245.89863 119.51936 244.51817 118.14317 244.51817 118.14317 curveto
243.14488 119.05867 241.82596 119.61249 240.30885 120.05716 curveto
238.79172 120.50183 237.18305 120.72417 235.48284 120.72417 curveto
232.04314 120.72417 229.25739 119.82175 227.12557 118.0169 curveto
225.00683 116.19896 223.94746 113.85788 223.94746 110.99365 curveto
223.94746 109.08418 224.41175 107.39704 225.34034 105.93221 curveto
226.28199 104.45434 227.62279 102.76969 229.74155 101.38334 curveto
229.19224 100.69018 228.9762 100.24955 228.71463 99.556364 curveto
228.45304 98.863224 228.32227 98.137366 228.32227 97.378782 curveto
228.32227 95.246987 229.15276 93.540218 230.81375 92.258486 curveto
232.47474 90.976807 234.68502 90.335946 237.44463 90.335925 curveto
238.63477 90.335946 242.45271 90.314284 243.67782 90.377658 curveto
244.83996 90.437775 245.73614 91.479842 245.76207 92.715585 curveto
245.78667 93.888222 245.02982 95.090497 243.40638 95.155882 curveto
241.78294 95.221267 239.53066 95.083504 238.48438 95.083471 curveto
237.47732 95.083504 236.6926 95.279673 236.13022 95.672013 curveto
235.58092 96.051321 235.30626 96.594081 235.30627 97.300303 curveto
235.30626 97.745005 235.4632 98.255068 235.7771 98.830503 curveto
236.10405 99.392904 236.58143 100.02068 237.20922 100.71383 curveto
233.49464 105.57908 moveto
232.56796 106.23972 230.47875 108.25107 230.20495 109.91919 curveto
229.92001 111.65514 230.6282 113.0585 231.73991 114.11786 curveto
232.85157 115.17725 234.53914 115.44177 236.09552 115.44176 curveto
236.97177 115.44177 237.78919 115.31098 238.54777 115.04941 curveto
239.30631 114.77476 240.01256 114.36933 240.66651 113.83309 curveto
233.49464 105.64221 lineto
fill
grestore
grestore
grestore
grestore
showpage
%%EOF
