%!PS-Adobe-3.0 EPSF-3.0
%%Creator: inkscape 0.43
%%Pages: 1
%%Orientation: Portrait
%%BoundingBox: 79 718 506 777
%%HiResBoundingBox: 79.739028 718.21925 505.40386 776.63782
%%EndComments
%%Page: 1 1
0 842 translate
0.8 -0.8 scale
gsave [1 0 0 1 0 0] concat
gsave [0.631635 0 0 0.631635 74.97883 22.59166] concat
gsave [1 0 0 1 24.54734 46.1935] concat
gsave
1 1 1 setrgbcolor
newpath
250.12232 52.501103 moveto
250.21347 62.004913 252.58651 71.870443 259.27857 78.844853 curveto
244.60025 95.314023 248.25362 123.21792 264.90357 137.09485 curveto
282.18234 152.48113 312.91031 148.94228 325.34106 129.1261 curveto
330.69469 121.65342 333.50189 112.39741 333.05981 103.15735 curveto
322.95564 103.15735 312.85148 103.15735 302.74731 103.15735 curveto
304.32142 110.85972 297.01037 117.96364 289.46606 116.1261 curveto
279.60864 115.28367 277.11898 100.40003 285.59106 95.844853 curveto
291.87183 92.035393 299.81266 94.810513 306.74731 93.969853 curveto
306.74731 83.865683 306.74731 73.761523 306.74731 63.657353 curveto
298.7568 62.565383 287.37276 66.890813 282.02857 58.719853 curveto
279.34492 55.598083 282.47993 48.626753 276.43482 50.501103 curveto
267.66399 50.501103 258.89315 50.501103 250.12232 50.501103 curveto
250.12232 51.501103 lineto
250.12232 52.501103 lineto
closepath
436.84106 52.501103 moveto
436.5873 62.100973 439.78784 71.878323 445.93481 79.032353 curveto
432.15223 95.154693 434.54381 121.49208 450.05981 135.65735 curveto
467.00171 152.59637 499.15567 149.64198 512.05981 129.1261 curveto
524.48697 112.54244 521.46777 87.193113 505.74731 73.907353 curveto
497.81386 66.036043 486.39614 63.585303 475.55981 63.313603 curveto
470.12055 61.863613 466.30894 56.127673 467.15356 50.501103 curveto
457.04939 50.501103 446.94523 50.501103 436.84106 50.501103 curveto
436.84106 51.501103 lineto
436.84106 52.501103 lineto
closepath
58.059835 63.688603 moveto
34.831555 63.614943 15.548906 86.322603 17.716086 109.15735 curveto
17.716086 121.64693 17.716086 134.13652 17.716086 146.6261 curveto
27.820259 146.6261 37.924415 146.6261 48.028585 146.6261 curveto
48.492735 131.5229 47.141025 116.20882 48.622335 101.21985 curveto
51.496515 93.438923 62.918141 91.405463 67.966078 98.251103 curveto
72.835068 104.59538 69.220418 113.74192 70.341078 121.15735 curveto
70.341078 129.64693 70.341078 138.13652 70.341078 146.6261 curveto
80.455658 146.6261 90.570248 146.6261 100.68483 146.6261 curveto
101.06566 131.63348 99.965298 116.46088 101.15358 101.5636 curveto
103.75395 93.546973 115.39252 91.296923 120.55983 98.188603 curveto
125.55987 104.64817 121.84031 113.77948 122.99733 121.2511 curveto
122.99733 129.70943 122.99733 138.16777 122.99733 146.6261 curveto
133.10149 146.6261 143.20565 146.6261 153.30982 146.6261 curveto
152.7841 130.23471 154.33978 113.67131 152.59107 97.376103 curveto
148.54248 77.759483 129.45887 61.590803 108.90358 63.782353 curveto
100.40185 64.518783 92.125808 68.821333 85.216088 72.751103 curveto
77.539238 66.705193 67.890508 63.321243 58.059835 63.688603 curveto
closepath
200.30982 63.688603 moveto
174.75245 63.500913 153.97081 91.311593 161.37232 115.8761 curveto
166.10702 133.90495 183.49879 147.79832 202.43482 146.6261 curveto
215.93482 146.6261 229.43482 146.6261 242.93482 146.6261 curveto
242.93482 136.52193 242.93482 126.41777 242.93482 116.3136 curveto
228.0414 115.93405 212.98922 117.04499 198.18482 115.8136 curveto
189.78711 113.52034 187.22219 100.78261 194.99732 96.188603 curveto
202.46047 89.931053 214.53133 97.817853 212.71607 107.15735 curveto
222.80982 107.15735 232.90357 107.15735 242.99732 107.15735 curveto
244.28679 83.649473 224.21352 62.189363 200.30982 63.688603 curveto
closepath
376.09106 63.688603 moveto
350.51398 63.479123 329.78018 91.303453 337.12231 115.8136 curveto
341.78652 133.4995 358.55206 147.40034 377.21606 146.6261 curveto
386.74354 146.72063 396.58548 143.9435 403.62231 137.40735 curveto
411.56024 143.74376 421.67331 147.09609 431.84106 146.6261 curveto
431.84106 136.55318 431.84106 126.48027 431.84106 116.40735 curveto
423.84796 117.48721 417.26603 109.77525 418.59106 102.09485 curveto
417.48034 80.740413 397.88353 62.199203 376.09106 63.688603 curveto
closepath
600.65356 63.688603 moveto
578.96628 63.893153 559.16828 83.088353 560.18481 105.15735 curveto
559.86294 127.20444 579.26101 147.71113 601.71606 146.6261 curveto
623.77589 147.60919 642.89419 127.81394 643.12231 106.15735 curveto
644.487 83.309633 623.16969 62.870913 600.65356 63.688603 curveto
closepath
685.93481 63.688603 moveto
660.40263 63.494983 639.62176 91.271793 646.99731 115.8136 curveto
651.6647 133.74372 668.87014 147.66331 687.71606 146.6261 curveto
694.53391 146.49373 699.2668 153.225 698.34106 159.78235 curveto
708.43481 159.78235 718.52856 159.78235 728.62231 159.78235 curveto
729.7934 136.79401 709.23082 114.95072 685.87231 116.2511 curveto
676.1312 116.3352 672.16529 101.78514 680.18481 96.501103 curveto
687.17162 90.022163 699.63566 96.965633 698.29643 106.24989 curveto
702.55202 108.36749 710.55112 106.55294 716.24731 107.15735 curveto
720.39687 105.90024 730.54119 110.44653 728.49731 103.1886 curveto
727.58344 81.760383 707.76412 62.275413 685.93481 63.688603 curveto
closepath
811.27856 63.688603 moveto
786.05422 63.512863 765.42204 90.619113 772.09106 114.8136 curveto
776.34085 133.16868 793.89061 147.73327 813.05981 146.6261 curveto
819.86924 146.52024 824.69324 153.22329 823.55981 159.78235 curveto
833.66398 159.78235 843.76814 159.78235 853.87231 159.78235 curveto
855.20221 136.7755 834.51632 114.95202 811.21606 116.2511 curveto
801.06421 116.25273 797.52799 101.18321 805.96606 96.157353 curveto
813.38785 89.972183 825.5913 97.827463 823.55981 107.15735 curveto
833.66398 107.15735 843.76814 107.15735 853.87231 107.15735 curveto
855.21065 84.254903 834.56546 62.217473 811.27856 63.688603 curveto
closepath
525.71606 66.313603 moveto
525.71606 93.084433 525.71606 119.85527 525.71606 146.6261 curveto
535.82023 146.6261 545.92439 146.6261 556.02856 146.6261 curveto
556.02856 119.1886 556.02856 91.751103 556.02856 64.313603 curveto
545.92439 64.313603 535.82023 64.313603 525.71606 64.313603 curveto
525.71606 65.313603 lineto
525.71606 66.313603 lineto
closepath
736.43481 66.313603 moveto
736.43481 93.084433 736.43481 119.85527 736.43481 146.6261 curveto
746.54939 146.6261 756.66398 146.6261 766.77856 146.6261 curveto
766.77856 119.1886 766.77856 91.751103 766.77856 64.313603 curveto
756.66398 64.313603 746.54939 64.313603 736.43481 64.313603 curveto
736.43481 65.313603 lineto
736.43481 66.313603 lineto
closepath
601.65356 93.313603 moveto
611.30633 92.853443 617.42507 106.22561 610.43481 113.1886 curveto
604.82968 120.25765 590.5546 117.30315 590.02856 107.4386 curveto
588.56603 100.21932 594.0967 92.952193 601.65356 93.313603 curveto
closepath
377.21606 93.969853 moveto
385.76854 93.764123 391.51884 104.21434 386.77856 111.3136 curveto
381.87268 119.95587 367.09327 116.48169 366.15356 106.65735 curveto
364.90018 100.05406 370.74245 94.042453 377.21606 93.969853 curveto
closepath
478.30981 93.969853 moveto
486.9859 93.694963 493.01233 104.76745 487.27856 111.6261 curveto
482.27467 119.93955 468.4138 116.22809 467.27856 106.8761 curveto
465.89083 100.20056 471.73979 94.046103 478.30981 93.969853 curveto
closepath
fill
grestore
1 1 1 setrgbcolor
[] 0 setdash
6 setlinewidth
0 setlinejoin
1 setlinecap
newpath
250.12232 52.501103 moveto
250.21347 62.004913 252.58651 71.870443 259.27857 78.844853 curveto
244.60025 95.314023 248.25362 123.21792 264.90357 137.09485 curveto
282.18234 152.48113 312.91031 148.94228 325.34106 129.1261 curveto
330.69469 121.65342 333.50189 112.39741 333.05981 103.15735 curveto
322.95564 103.15735 312.85148 103.15735 302.74731 103.15735 curveto
304.32142 110.85972 297.01037 117.96364 289.46606 116.1261 curveto
279.60864 115.28367 277.11898 100.40003 285.59106 95.844853 curveto
291.87183 92.035393 299.81266 94.810513 306.74731 93.969853 curveto
306.74731 83.865683 306.74731 73.761523 306.74731 63.657353 curveto
298.7568 62.565383 287.37276 66.890813 282.02857 58.719853 curveto
279.34492 55.598083 282.47993 48.626753 276.43482 50.501103 curveto
267.66399 50.501103 258.89315 50.501103 250.12232 50.501103 curveto
250.12232 51.501103 lineto
250.12232 52.501103 lineto
closepath
436.84106 52.501103 moveto
436.5873 62.100973 439.78784 71.878323 445.93481 79.032353 curveto
432.15223 95.154693 434.54381 121.49208 450.05981 135.65735 curveto
467.00171 152.59637 499.15567 149.64198 512.05981 129.1261 curveto
524.48697 112.54244 521.46777 87.193113 505.74731 73.907353 curveto
497.81386 66.036043 486.39614 63.585303 475.55981 63.313603 curveto
470.12055 61.863613 466.30894 56.127673 467.15356 50.501103 curveto
457.04939 50.501103 446.94523 50.501103 436.84106 50.501103 curveto
436.84106 51.501103 lineto
436.84106 52.501103 lineto
closepath
58.059835 63.688603 moveto
34.831555 63.614943 15.548906 86.322603 17.716086 109.15735 curveto
17.716086 121.64693 17.716086 134.13652 17.716086 146.6261 curveto
27.820259 146.6261 37.924415 146.6261 48.028585 146.6261 curveto
48.492735 131.5229 47.141025 116.20882 48.622335 101.21985 curveto
51.496515 93.438923 62.918141 91.405463 67.966078 98.251103 curveto
72.835068 104.59538 69.220418 113.74192 70.341078 121.15735 curveto
70.341078 129.64693 70.341078 138.13652 70.341078 146.6261 curveto
80.455658 146.6261 90.570248 146.6261 100.68483 146.6261 curveto
101.06566 131.63348 99.965298 116.46088 101.15358 101.5636 curveto
103.75395 93.546973 115.39252 91.296923 120.55983 98.188603 curveto
125.55987 104.64817 121.84031 113.77948 122.99733 121.2511 curveto
122.99733 129.70943 122.99733 138.16777 122.99733 146.6261 curveto
133.10149 146.6261 143.20565 146.6261 153.30982 146.6261 curveto
152.7841 130.23471 154.33978 113.67131 152.59107 97.376103 curveto
148.54248 77.759483 129.45887 61.590803 108.90358 63.782353 curveto
100.40185 64.518783 92.125808 68.821333 85.216088 72.751103 curveto
77.539238 66.705193 67.890508 63.321243 58.059835 63.688603 curveto
closepath
200.30982 63.688603 moveto
174.75245 63.500913 153.97081 91.311593 161.37232 115.8761 curveto
166.10702 133.90495 183.49879 147.79832 202.43482 146.6261 curveto
215.93482 146.6261 229.43482 146.6261 242.93482 146.6261 curveto
242.93482 136.52193 242.93482 126.41777 242.93482 116.3136 curveto
228.0414 115.93405 212.98922 117.04499 198.18482 115.8136 curveto
189.78711 113.52034 187.22219 100.78261 194.99732 96.188603 curveto
202.46047 89.931053 214.53133 97.817853 212.71607 107.15735 curveto
222.80982 107.15735 232.90357 107.15735 242.99732 107.15735 curveto
244.28679 83.649473 224.21352 62.189363 200.30982 63.688603 curveto
closepath
376.09106 63.688603 moveto
350.51398 63.479123 329.78018 91.303453 337.12231 115.8136 curveto
341.78652 133.4995 358.55206 147.40034 377.21606 146.6261 curveto
386.74354 146.72063 396.58548 143.9435 403.62231 137.40735 curveto
411.56024 143.74376 421.67331 147.09609 431.84106 146.6261 curveto
431.84106 136.55318 431.84106 126.48027 431.84106 116.40735 curveto
423.84796 117.48721 417.26603 109.77525 418.59106 102.09485 curveto
417.48034 80.740413 397.88353 62.199203 376.09106 63.688603 curveto
closepath
600.65356 63.688603 moveto
578.96628 63.893153 559.16828 83.088353 560.18481 105.15735 curveto
559.86294 127.20444 579.26101 147.71113 601.71606 146.6261 curveto
623.77589 147.60919 642.89419 127.81394 643.12231 106.15735 curveto
644.487 83.309633 623.16969 62.870913 600.65356 63.688603 curveto
closepath
685.93481 63.688603 moveto
660.40263 63.494983 639.62176 91.271793 646.99731 115.8136 curveto
651.6647 133.74372 668.87014 147.66331 687.71606 146.6261 curveto
694.53391 146.49373 699.2668 153.225 698.34106 159.78235 curveto
708.43481 159.78235 718.52856 159.78235 728.62231 159.78235 curveto
729.7934 136.79401 709.23082 114.95072 685.87231 116.2511 curveto
676.1312 116.3352 672.16529 101.78514 680.18481 96.501103 curveto
687.17162 90.022163 699.63566 96.965633 698.29643 106.24989 curveto
702.55202 108.36749 710.55112 106.55294 716.24731 107.15735 curveto
720.39687 105.90024 730.54119 110.44653 728.49731 103.1886 curveto
727.58344 81.760383 707.76412 62.275413 685.93481 63.688603 curveto
closepath
811.27856 63.688603 moveto
786.05422 63.512863 765.42204 90.619113 772.09106 114.8136 curveto
776.34085 133.16868 793.89061 147.73327 813.05981 146.6261 curveto
819.86924 146.52024 824.69324 153.22329 823.55981 159.78235 curveto
833.66398 159.78235 843.76814 159.78235 853.87231 159.78235 curveto
855.20221 136.7755 834.51632 114.95202 811.21606 116.2511 curveto
801.06421 116.25273 797.52799 101.18321 805.96606 96.157353 curveto
813.38785 89.972183 825.5913 97.827463 823.55981 107.15735 curveto
833.66398 107.15735 843.76814 107.15735 853.87231 107.15735 curveto
855.21065 84.254903 834.56546 62.217473 811.27856 63.688603 curveto
closepath
525.71606 66.313603 moveto
525.71606 93.084433 525.71606 119.85527 525.71606 146.6261 curveto
535.82023 146.6261 545.92439 146.6261 556.02856 146.6261 curveto
556.02856 119.1886 556.02856 91.751103 556.02856 64.313603 curveto
545.92439 64.313603 535.82023 64.313603 525.71606 64.313603 curveto
525.71606 65.313603 lineto
525.71606 66.313603 lineto
closepath
736.43481 66.313603 moveto
736.43481 93.084433 736.43481 119.85527 736.43481 146.6261 curveto
746.54939 146.6261 756.66398 146.6261 766.77856 146.6261 curveto
766.77856 119.1886 766.77856 91.751103 766.77856 64.313603 curveto
756.66398 64.313603 746.54939 64.313603 736.43481 64.313603 curveto
736.43481 65.313603 lineto
736.43481 66.313603 lineto
closepath
601.65356 93.313603 moveto
611.30633 92.853443 617.42507 106.22561 610.43481 113.1886 curveto
604.82968 120.25765 590.5546 117.30315 590.02856 107.4386 curveto
588.56603 100.21932 594.0967 92.952193 601.65356 93.313603 curveto
closepath
377.21606 93.969853 moveto
385.76854 93.764123 391.51884 104.21434 386.77856 111.3136 curveto
381.87268 119.95587 367.09327 116.48169 366.15356 106.65735 curveto
364.90018 100.05406 370.74245 94.042453 377.21606 93.969853 curveto
closepath
478.30981 93.969853 moveto
486.9859 93.694963 493.01233 104.76745 487.27856 111.6261 curveto
482.27467 119.93955 468.4138 116.22809 467.27856 106.8761 curveto
465.89083 100.20056 471.73979 94.046103 478.30981 93.969853 curveto
closepath
stroke
grestore
gsave
0.98039216 0.24313726 0.64313728 setrgbcolor
newpath
302.54084 93.37527 moveto
302.01863 93.42197 301.50195 93.57142 300.97834 93.68777 curveto
300.97573 93.6877 300.94972 93.68806 300.94709 93.68777 curveto
292.18668 93.68777 283.42625 93.68777 274.66584 93.68777 curveto
271.66584 93.68777 lineto
271.66584 96.68777 lineto
271.66584 97.68777 lineto
271.66584 98.68777 lineto
271.75364 107.84194 273.87673 117.5745 279.94709 125.09402 curveto
265.99273 143.14277 270.20676 171.11565 287.54084 185.56277 curveto
306.30947 202.27573 338.91913 198.47179 352.44709 176.90652 curveto
352.41584 176.87527 lineto
355.36009 172.72927 357.53163 168.10374 358.91584 163.21902 curveto
364.05708 182.00879 381.70584 196.53174 401.72834 195.78152 curveto
401.72834 195.81277 lineto
411.07024 195.90546 420.72387 193.24885 428.25959 187.21902 curveto
436.44828 193.08359 446.4135 196.24964 456.54084 195.78152 curveto
459.38459 195.65652 lineto
459.38459 192.81277 lineto
459.38458 182.73985 459.38459 172.66694 459.38459 162.59402 curveto
459.38459 159.68777 lineto
461.15593 168.84762 465.48087 177.50721 472.47834 183.93777 curveto
472.50975 183.96917 472.54059 184.00024 472.57209 184.03152 curveto
490.94832 202.27781 524.92717 199.18799 539.00959 177.09402 curveto
539.03009 177.06186 539.05168 177.03251 539.07209 177.00027 curveto
539.07777 176.99264 539.09818 176.97685 539.10334 176.96902 curveto
539.11329 176.95322 539.12327 176.92181 539.13459 176.90652 curveto
544.05071 170.2679 546.7264 162.42939 547.25959 154.43777 curveto
547.25959 167.22944 547.25959 180.0211 547.25959 192.81277 curveto
547.25959 195.81277 lineto
550.25959 195.81277 lineto
560.36375 195.81277 570.46792 195.81277 580.57209 195.81277 curveto
583.57209 195.81277 lineto
583.57209 192.81277 lineto
583.57209 183.0211 583.57209 173.22944 583.57209 163.43777 curveto
588.88732 181.91284 606.15448 196.60164 626.13459 195.78152 curveto
626.22936 195.78574 626.32118 195.77799 626.41584 195.78152 curveto
646.35168 196.5248 663.60837 181.87321 668.88459 163.40652 curveto
674.12423 182.42158 692.20651 196.89377 712.41584 195.78152 curveto
717.23326 195.68799 720.60401 200.65699 719.91584 205.53152 curveto
719.44709 208.96902 lineto
722.88459 208.96902 lineto
732.97833 208.96902 743.07209 208.96902 753.16584 208.96902 curveto
756.00959 208.96902 lineto
756.16584 206.09402 lineto
757.43051 181.26868 735.64851 158.11258 710.38459 159.43777 curveto
703.63752 159.49602 700.85731 148.82968 706.38459 145.18777 curveto
706.60334 145.03152 lineto
706.75959 144.87527 lineto
711.65843 140.33252 720.81812 145.52852 719.88459 152.00027 curveto
719.57209 154.15652 lineto
721.50959 155.09402 lineto
724.61456 156.63908 728.0283 156.55509 731.38459 156.43777 curveto
734.74088 156.32045 738.09002 156.05935 740.47834 156.31277 curveto
741.07209 156.37527 lineto
741.66584 156.18777 lineto
741.89842 156.11731 743.0801 156.06119 744.47834 156.18777 curveto
745.87658 156.31435 747.50563 156.5512 749.16584 156.59402 curveto
750.82605 156.63684 752.71929 156.66573 754.50959 155.15652 curveto
755.40474 154.40192 756.04416 153.20516 756.22834 152.03152 curveto
756.37764 151.08018 756.22065 150.16213 756.00959 149.21902 curveto
756.04084 149.21902 lineto
756.03222 149.017 755.95874 148.8269 755.94709 148.62527 curveto
755.94717 148.61485 755.94702 148.57319 755.94709 148.56277 curveto
754.59163 125.71089 733.91178 105.49526 710.50959 106.87527 curveto
710.43605 106.87961 710.36444 106.87051 710.29084 106.87527 curveto
691.03556 106.83909 674.56997 121.16646 669.04084 138.84402 curveto
663.47586 120.28383 644.90739 106.18977 625.16584 106.87527 curveto
625.10334 106.87527 lineto
606.11634 107.08369 588.90142 120.62791 583.57209 138.46902 curveto
583.57209 129.1461 583.57209 119.82319 583.57209 110.50027 curveto
583.57209 107.50027 lineto
580.57209 107.50027 lineto
570.46791 107.50027 560.36376 107.50027 550.25959 107.50027 curveto
547.25959 107.50027 lineto
547.25959 110.50027 lineto
547.25959 111.50027 lineto
547.25959 112.50027 lineto
547.25959 124.46902 547.25959 136.43777 547.25959 148.40652 curveto
546.49678 136.88888 541.37285 125.66033 532.38459 117.96902 curveto
532.41584 117.93777 lineto
532.40851 117.9305 532.39223 117.91331 532.38459 117.90652 curveto
532.35315 117.88077 532.29111 117.83838 532.25959 117.81277 curveto
532.25192 117.80604 532.23571 117.78872 532.22834 117.78152 curveto
523.65924 109.40559 511.78831 106.91485 500.79084 106.56277 curveto
496.96397 105.48418 494.06726 101.1128 494.66584 97.12527 curveto
495.19709 93.68777 lineto
491.69709 93.68777 lineto
481.59291 93.68777 471.48876 93.68777 461.38459 93.68777 curveto
458.38459 93.68777 lineto
458.38459 96.68777 lineto
458.38459 97.68777 lineto
458.38459 98.68777 lineto
458.15405 108.18237 461.16565 117.69107 466.85334 125.21902 curveto
459.49936 134.97145 457.15787 147.40168 459.29084 159.15652 curveto
455.97834 159.59402 lineto
450.07978 160.39091 445.11848 154.49019 446.10334 148.78152 curveto
446.16584 148.43777 lineto
446.13459 148.12527 lineto
444.93724 125.1054 424.17882 105.40087 400.66584 106.87527 curveto
400.59172 106.87992 400.52127 106.8702 400.44709 106.87527 curveto
378.49055 106.82074 360.20049 125.40657 357.54084 146.34402 curveto
347.4575 146.34402 337.37418 146.34402 327.29084 146.34402 curveto
323.63459 146.34402 lineto
324.35334 149.93777 lineto
325.49012 155.50023 320.11239 160.68664 314.72834 159.37527 curveto
314.50959 159.34402 lineto
314.25959 159.31277 lineto
307.34646 158.72196 305.71655 147.80487 311.57209 144.65652 curveto
311.63459 144.62527 lineto
311.69709 144.59402 lineto
314.08196 143.14753 316.94983 142.86277 320.38459 142.96902 curveto
323.81935 143.07527 327.67118 143.60953 331.66584 143.12527 curveto
334.29084 142.81277 lineto
334.29084 140.15652 lineto
334.29083 130.05235 334.29084 119.94819 334.29084 109.84402 curveto
334.29084 107.21902 lineto
331.69709 106.84402 lineto
326.98596 106.20021 322.12796 107.07009 318.00959 107.00027 curveto
313.89122 106.93045 311.10858 106.31616 309.10334 103.25027 curveto
308.97834 103.09402 lineto
308.85334 102.93777 lineto
308.8457 102.92738 308.82967 102.88854 308.82209 102.87527 curveto
308.59563 102.43449 308.37788 100.71302 308.00959 98.43777 curveto
307.81317 97.2243 307.47802 95.52751 305.82209 94.31277 curveto
304.99412 93.7054 304.0496 93.42399 303.07209 93.37527 curveto
302.89969 93.36668 302.71491 93.3597 302.54084 93.37527 curveto
closepath
302.66584 96.34402 moveto
306.42106 96.26277 304.18197 102.12619 306.57209 104.90652 curveto
311.91628 113.07748 323.30032 108.75205 331.29084 109.84402 curveto
331.29084 119.94819 331.29083 130.05235 331.29084 140.15652 curveto
324.35619 140.99718 316.41535 138.22206 310.13459 142.03152 curveto
301.66251 146.5867 304.15216 161.47034 314.00959 162.31277 curveto
321.5539 164.15031 328.86494 157.04639 327.29084 149.34402 curveto
337.39501 149.34402 347.49916 149.34402 357.60334 149.34402 curveto
358.04542 158.58408 355.23821 167.84009 349.88459 175.31277 curveto
337.45384 195.12895 306.72586 198.6678 289.44709 183.28152 curveto
272.79714 169.40459 269.14377 141.50069 283.82209 125.03152 curveto
277.13003 118.05711 274.75699 108.19158 274.66584 98.68777 curveto
274.66584 97.68777 lineto
274.66584 96.68777 lineto
283.43667 96.68777 292.20751 96.68777 300.97834 96.68777 curveto
301.63952 96.48276 302.20467 96.354 302.66584 96.34402 curveto
closepath
461.38459 96.68777 moveto
471.48876 96.68777 481.59291 96.68777 491.69709 96.68777 curveto
490.85247 102.31434 494.66407 108.05028 500.10334 109.50027 curveto
510.93967 109.77197 522.35738 112.22271 530.29084 120.09402 curveto
546.0113 133.37978 549.03049 158.72911 536.60334 175.31277 curveto
523.6992 195.82865 491.54523 198.78304 474.60334 181.84402 curveto
459.08734 167.67875 456.69575 141.34136 470.47834 125.21902 curveto
464.33137 118.06499 461.13082 108.28764 461.38459 98.68777 curveto
461.38459 97.68777 lineto
461.38459 96.68777 lineto
closepath
302.00959 99.46902 moveto
301.9982 99.47273 301.98712 99.4967 301.97834 99.50027 curveto
301.96135 99.5069 301.93616 99.51553 301.88459 99.53152 curveto
301.44709 99.68777 lineto
300.97834 99.68777 lineto
293.22835 99.68777 285.47834 99.68777 277.72834 99.68777 curveto
277.97509 108.36485 280.24791 116.96557 285.97834 122.93777 curveto
287.91584 124.93777 lineto
286.07209 127.00027 lineto
272.67817 142.02834 276.08822 168.22023 291.38459 180.96902 curveto
291.41584 181.00027 lineto
291.44709 181.03152 lineto
307.23601 195.09113 336.0198 191.78611 347.35334 173.71902 curveto
347.38459 173.62527 lineto
347.44709 173.56277 lineto
351.85027 167.41674 354.24713 159.92043 354.47834 152.34402 curveto
346.47834 152.34402 338.47834 152.34402 330.47834 152.34402 curveto
329.93474 160.48434 322.08839 167.0171 313.75959 165.28152 curveto
313.75552 165.28054 313.73219 165.28293 313.72834 165.28152 curveto
313.7209 165.27818 313.70452 165.25362 313.69709 165.25027 curveto
313.69325 165.24885 313.6699 165.25127 313.66584 165.25027 curveto
313.65861 165.24871 313.6418 165.25149 313.63459 165.25027 curveto
313.56993 165.24196 313.48011 165.22259 313.41584 165.21902 curveto
313.40153 165.21787 313.36772 165.22117 313.35334 165.21902 curveto
313.34613 165.21762 313.32933 165.22078 313.32209 165.21902 curveto
313.32209 165.15652 lineto
300.97398 163.64483 297.82687 145.43984 308.60334 139.46902 curveto
308.60334 139.43777 lineto
308.61614 139.43173 308.62133 139.41084 308.63459 139.40652 curveto
308.65791 139.39935 308.70622 139.38678 308.72834 139.37527 curveto
312.58331 137.09548 316.78146 136.85176 320.57209 136.96902 curveto
323.35875 137.05523 325.92016 137.22348 328.29084 137.21902 curveto
328.29084 129.0836 328.29084 120.94819 328.29084 112.81277 curveto
325.26327 112.79711 321.70868 113.0651 317.88459 113.00027 curveto
313.08539 112.91891 307.68269 111.64229 304.32209 106.81277 curveto
304.29084 106.84402 lineto
304.22648 106.76915 304.19501 106.70068 304.13459 106.62527 curveto
304.11262 106.59229 304.09387 106.56482 304.07209 106.53152 curveto
301.96071 103.81672 302.26488 100.81984 302.07209 99.46902 curveto
302.04782 99.47533 302.02098 99.46531 302.00959 99.46902 curveto
closepath
464.44709 99.68777 moveto
464.43985 108.26648 467.35495 116.96019 472.75959 123.25027 curveto
474.44709 125.18777 lineto
472.75959 127.15652 lineto
460.13698 141.92197 462.37268 166.60492 476.63459 179.62527 curveto
476.69709 179.65652 lineto
476.72834 179.71902 lineto
492.20477 195.19282 522.29465 192.41234 534.07209 173.68777 curveto
534.13459 173.59402 lineto
534.19709 173.50027 lineto
545.60465 158.27723 542.78154 134.56891 528.35334 122.37527 curveto
528.25959 122.28152 lineto
528.19709 122.21902 lineto
521.06424 115.14204 510.47806 112.73071 500.04084 112.46902 curveto
499.66584 112.46902 lineto
499.32209 112.37527 lineto
493.45302 110.8107 489.27848 105.58946 488.69709 99.68777 curveto
480.61375 99.68777 472.53042 99.68777 464.44709 99.68777 curveto
closepath
136.25959 106.75027 moveto
135.22472 106.77719 134.17975 106.85759 133.13459 106.96902 curveto
124.47445 107.71917 116.56917 111.69396 109.8846 115.43777 curveto
102.00043 109.78421 92.4761 106.53717 82.63461 106.87527 curveto
82.57211 106.87527 lineto
82.50961 106.87527 lineto
57.473926 106.87585 37.132749 130.79585 39.290859 155.34402 curveto
39.259609 155.34402 lineto
39.259609 167.8336 39.259609 180.32319 39.259609 192.81277 curveto
39.259609 195.81277 lineto
42.259609 195.81277 lineto
52.363789 195.81277 62.46794 195.81277 72.57211 195.81277 curveto
75.47836 195.81277 lineto
75.57211 192.87527 lineto
76.03867 177.69371 74.76361 162.62712 76.13461 148.15652 curveto
78.36659 142.88721 86.57382 141.43251 90.10335 146.21902 curveto
90.1346 146.21902 lineto
90.1346 146.25027 lineto
91.92686 148.58557 92.24938 151.5682 92.10335 155.34402 curveto
91.96228 158.99164 91.36641 163.1383 91.91585 167.34402 curveto
91.8846 167.34402 lineto
91.8846 175.8336 91.8846 184.32319 91.8846 192.81277 curveto
91.8846 195.81277 lineto
94.8846 195.81277 lineto
104.99918 195.81277 115.11377 195.81277 125.22833 195.81277 curveto
128.16584 195.81277 lineto
128.22834 192.87527 lineto
128.6101 177.84617 127.56144 162.88373 128.66584 148.43777 curveto
130.66262 142.94819 139.06529 141.31276 142.69709 146.15652 curveto
142.72834 146.18777 lineto
144.58913 148.59173 144.91046 151.61797 144.75959 155.40652 curveto
144.61381 159.0671 144.00318 163.19426 144.57209 167.43777 curveto
144.54084 167.43777 lineto
144.54084 175.8961 144.54084 184.35444 144.54084 192.81277 curveto
144.54084 195.81277 lineto
147.54084 195.81277 lineto
157.645 195.81277 167.74917 195.81277 177.85334 195.81277 curveto
180.94709 195.81277 lineto
180.85334 192.68777 lineto
180.33578 176.55062 181.92645 159.91636 180.13459 143.21902 curveto
180.10334 143.09402 lineto
180.07209 142.93777 lineto
175.91663 122.80331 157.30187 106.20285 136.25959 106.75027 curveto
closepath
227.16584 106.78152 moveto
226.40504 106.78849 225.65302 106.83121 224.88459 106.87527 curveto
224.81091 106.87949 224.73959 106.87064 224.66584 106.87527 curveto
197.02421 106.82998 175.03273 136.32879 183.04084 162.90652 curveto
188.12203 182.25472 206.54614 196.94842 226.97834 195.78152 curveto
226.97834 195.81277 lineto
240.47834 195.81277 253.97834 195.81277 267.47834 195.81277 curveto
270.47834 195.81277 lineto
270.47834 192.81277 lineto
270.47834 182.7086 270.47834 172.60444 270.47834 162.50027 curveto
270.47834 159.56277 lineto
267.57209 159.50027 lineto
252.61812 159.11918 237.74799 160.18345 223.38459 159.03152 curveto
217.68549 157.31293 215.68771 148.11918 221.07209 144.93777 curveto
221.29084 144.81277 lineto
221.47834 144.65652 lineto
226.7701 140.2196 235.60177 146.16633 234.32209 152.75027 curveto
233.63459 156.34402 lineto
237.25959 156.34402 lineto
247.35334 156.34402 257.44709 156.34402 267.54084 156.34402 curveto
270.38459 156.34402 lineto
270.54084 153.50027 lineto
271.84228 129.77431 253.05341 108.12367 229.44709 106.84402 curveto
228.69621 106.80331 227.92664 106.77455 227.16584 106.78152 curveto
closepath
838.10334 106.78152 moveto
837.35888 106.78924 836.60588 106.83203 835.85334 106.87527 curveto
835.77967 106.8795 835.70832 106.87061 835.63459 106.87527 curveto
816.32352 106.85076 799.79717 121.25964 794.32209 138.96902 curveto
794.32209 129.47944 794.32209 119.98985 794.32209 110.50027 curveto
794.32209 107.50027 lineto
791.32209 107.50027 lineto
781.2075 107.50027 771.09292 107.50027 760.97834 107.50027 curveto
757.97834 107.50027 lineto
757.97834 110.50027 lineto
757.97834 111.50027 lineto
757.97834 112.50027 lineto
757.97833 139.2711 757.97834 166.04194 757.97834 192.81277 curveto
757.97834 195.81277 lineto
760.97834 195.81277 lineto
771.09291 195.81277 781.20751 195.81277 791.32209 195.81277 curveto
794.32209 195.81277 lineto
794.32209 192.81277 lineto
794.32209 183.04194 794.32209 173.2711 794.32209 163.50027 curveto
799.57248 182.42885 817.62595 196.9462 837.79084 195.78152 curveto
842.6102 195.7066 845.99766 200.62409 845.16584 205.43777 curveto
844.54084 208.96902 lineto
848.10334 208.96902 lineto
858.2075 208.96902 868.31167 208.96902 878.41584 208.96902 curveto
881.25959 208.96902 lineto
881.41584 206.12527 lineto
882.85247 181.27193 860.95661 158.13441 835.75959 159.43777 curveto
828.57667 159.43892 826.18449 148.39466 832.04084 144.90652 curveto
832.25959 144.78152 lineto
832.44709 144.62527 lineto
837.66678 140.27528 846.59148 146.14032 845.16584 152.68777 curveto
844.38459 156.34402 lineto
848.10334 156.34402 lineto
858.2075 156.34402 868.31167 156.34402 878.41584 156.34402 curveto
881.25959 156.34402 lineto
881.41584 153.50027 lineto
882.77492 130.24275 863.55784 108.19271 840.32209 106.84402 curveto
839.58371 106.80116 838.8478 106.7738 838.10334 106.78152 curveto
closepath
136.32209 109.75027 moveto
155.75394 109.27081 173.27578 124.86568 177.13459 143.56277 curveto
178.8833 159.85798 177.32762 176.42138 177.85334 192.81277 curveto
167.74917 192.81277 157.645 192.81277 147.54084 192.81277 curveto
147.54084 184.35444 147.54084 175.8961 147.54084 167.43777 curveto
146.38382 159.96615 150.10338 150.83484 145.10334 144.37527 curveto
139.93603 137.48359 128.29746 139.73364 125.69708 147.75027 curveto
124.5088 162.64755 125.60916 177.82015 125.22833 192.81277 curveto
115.11377 192.81277 104.99918 192.81277 94.8846 192.81277 curveto
94.8846 184.32319 94.8846 175.8336 94.8846 167.34402 curveto
93.76394 159.92859 97.37859 150.78205 92.5096 144.43777 curveto
87.46168 137.59213 76.04004 139.62559 73.16586 147.40652 curveto
71.68455 162.39549 73.03626 177.70957 72.57211 192.81277 curveto
62.46794 192.81277 52.363779 192.81277 42.259609 192.81277 curveto
42.259609 180.32319 42.259609 167.8336 42.259609 155.34402 curveto
40.092429 132.50927 59.37508 109.80161 82.60336 109.87527 curveto
92.43402 109.50791 102.08275 112.89186 109.7596 118.93777 curveto
116.66931 115.008 124.94535 110.70545 133.44709 109.96902 curveto
134.41062 109.86629 135.36643 109.77385 136.32209 109.75027 curveto
closepath
226.54084 109.78152 moveto
249.69955 109.3572 268.80009 130.38711 267.54084 153.34402 curveto
257.44709 153.34402 247.35334 153.34402 237.25959 153.34402 curveto
239.07485 144.00452 227.00399 136.11772 219.54084 142.37527 curveto
211.76571 146.96928 214.33063 159.70701 222.72834 162.00027 curveto
237.53274 163.23166 252.58492 162.12072 267.47834 162.50027 curveto
267.47834 172.60444 267.47834 182.7086 267.47834 192.81277 curveto
253.97834 192.81277 240.47834 192.81277 226.97834 192.81277 curveto
208.04231 193.98499 190.65054 180.09162 185.91584 162.06277 curveto
178.51433 137.49826 199.29597 109.68758 224.85334 109.87527 curveto
225.41358 109.84013 225.98503 109.7917 226.54084 109.78152 curveto
closepath
401.91584 109.78152 moveto
423.19249 109.08193 442.04556 127.34416 443.13459 148.28152 curveto
441.80956 155.96192 448.39148 163.67388 456.38459 162.59402 curveto
456.38459 172.66694 456.38458 182.73985 456.38459 192.81277 curveto
446.21684 193.28276 436.10376 189.93043 428.16584 183.59402 curveto
421.12901 190.13017 411.28706 192.9073 401.75959 192.81277 curveto
383.09559 193.58701 366.33004 179.68617 361.66584 162.00027 curveto
354.32371 137.49012 375.0575 109.66579 400.63459 109.87527 curveto
401.06022 109.84618 401.492 109.79546 401.91584 109.78152 curveto
closepath
712.00959 109.78152 moveto
733.2262 109.34793 752.14838 128.44927 753.04084 149.37527 curveto
755.08472 156.6332 744.94039 152.08691 740.79084 153.34402 curveto
735.09465 152.73961 727.10891 154.52413 722.85334 152.40652 curveto
724.19257 143.12226 711.71514 136.20883 704.72834 142.68777 curveto
696.70882 147.97181 700.67472 162.52187 710.41584 162.43777 curveto
733.77435 161.13739 754.33692 182.98068 753.16584 205.96902 curveto
743.07209 205.96902 732.97833 205.96902 722.88459 205.96902 curveto
723.81033 199.41167 719.07743 192.6804 712.25959 192.81277 curveto
693.41367 193.84998 676.20822 179.93039 671.54084 162.00027 curveto
664.16529 137.45846 684.94615 109.68165 710.47834 109.87527 curveto
710.98996 109.84215 711.50039 109.79193 712.00959 109.78152 curveto
closepath
837.44709 109.78152 moveto
860.0569 109.40886 879.72281 130.97835 878.41584 153.34402 curveto
868.31167 153.34402 858.2075 153.34402 848.10334 153.34402 curveto
850.13483 144.01413 837.93137 136.15885 830.50959 142.34402 curveto
822.07152 147.36988 825.60773 162.4394 835.75959 162.43777 curveto
859.05985 161.13869 879.74573 182.96217 878.41584 205.96902 curveto
868.31167 205.96902 858.2075 205.96902 848.10334 205.96902 curveto
849.23677 199.40996 844.41276 192.70691 837.60334 192.81277 curveto
818.43414 193.91994 800.88437 179.35535 796.63459 161.00027 curveto
789.96557 136.80578 810.59774 109.69953 835.82209 109.87527 curveto
836.36788 109.84079 836.90445 109.79046 837.44709 109.78152 curveto
closepath
625.47834 109.84402 moveto
647.89686 109.19465 669.02519 129.58555 667.66584 152.34402 curveto
667.43772 174.00061 648.31941 193.79586 626.25959 192.81277 curveto
603.80454 193.8978 584.40646 173.39111 584.72834 151.34402 curveto
583.71181 129.27502 603.5098 110.07982 625.19709 109.87527 curveto
625.28504 109.87208 625.39042 109.84657 625.47834 109.84402 curveto
closepath
550.25959 110.50027 moveto
560.36376 110.50027 570.46791 110.50027 580.57209 110.50027 curveto
580.57209 137.93777 580.57208 165.37527 580.57209 192.81277 curveto
570.46792 192.81277 560.36375 192.81277 550.25959 192.81277 curveto
550.25959 166.04194 550.25958 139.2711 550.25959 112.50027 curveto
550.25959 111.50027 lineto
550.25959 110.50027 lineto
closepath
760.97834 110.50027 moveto
771.09292 110.50027 781.2075 110.50027 791.32209 110.50027 curveto
791.32209 137.93777 791.32208 165.37527 791.32209 192.81277 curveto
781.20751 192.81277 771.09291 192.81277 760.97834 192.81277 curveto
760.97834 166.04194 760.97833 139.2711 760.97834 112.50027 curveto
760.97834 111.50027 lineto
760.97834 110.50027 lineto
closepath
136.60334 112.75027 moveto
135.65572 112.76574 134.7138 112.83604 133.75959 112.93777 curveto
133.72834 112.93777 lineto
126.06071 113.60195 118.09244 117.64546 111.2596 121.53152 curveto
109.5096 122.53152 lineto
107.91585 121.28152 lineto
100.77144 115.65493 91.79881 112.50507 82.72836 112.84402 curveto
82.66586 112.87527 lineto
82.60336 112.87527 lineto
61.33549 112.80783 43.268249 134.04933 45.259609 155.03152 curveto
45.259609 155.18777 lineto
45.259609 155.34402 lineto
45.259609 166.8336 45.259609 178.32319 45.259609 189.81277 curveto
53.363779 189.81277 61.46794 189.81277 69.57211 189.81277 curveto
69.79832 175.84476 68.7761 161.47289 70.19711 147.09402 curveto
70.22836 146.71902 lineto
70.35336 146.34402 lineto
74.0638 136.29918 88.3854 133.78027 94.8846 142.59402 curveto
97.96133 146.603 98.26723 151.35664 98.10335 155.59402 curveto
97.93947 159.8314 97.39146 163.81897 97.85335 166.87527 curveto
97.8846 167.09402 lineto
97.8846 167.34402 lineto
97.8846 174.8336 97.8846 182.32319 97.8846 189.81277 curveto
105.99918 189.81277 114.11377 189.81277 122.22833 189.81277 curveto
122.41482 175.92458 121.59398 161.7215 122.72833 147.50027 curveto
122.72833 147.15652 lineto
122.85333 146.81277 lineto
126.21347 136.45385 140.826 133.65925 147.47834 142.53152 curveto
150.61759 146.58713 150.92923 151.36537 150.75959 155.62527 curveto
150.58995 159.88517 150.03376 163.89629 150.50959 166.96902 curveto
150.54084 167.18777 lineto
150.54084 167.43777 lineto
150.54084 174.8961 150.54084 182.35444 150.54084 189.81277 curveto
158.645 189.81277 166.74917 189.81277 174.85334 189.81277 curveto
174.57715 174.3224 175.75108 158.97211 174.19709 144.15652 curveto
174.19604 144.15384 174.19848 144.12785 174.19709 144.12527 curveto
174.19543 144.12277 174.16743 144.12779 174.16584 144.12527 curveto
174.16445 144.12269 174.1669 144.0967 174.16584 144.09402 curveto
170.58937 126.93349 154.31663 112.46116 136.60334 112.75027 curveto
closepath
226.00959 112.78152 moveto
225.68238 112.79266 225.36969 112.82339 225.04084 112.84402 curveto
224.94709 112.87527 lineto
224.85334 112.87527 lineto
201.48407 112.70365 182.01729 138.70736 188.79084 161.18777 curveto
188.82209 161.21902 lineto
188.82209 161.28152 lineto
193.19453 177.93094 209.42688 190.88767 226.79084 189.81277 curveto
226.88459 189.81277 lineto
226.97834 189.81277 lineto
239.47834 189.81277 251.97834 189.81277 264.47834 189.81277 curveto
264.47834 181.69819 264.47834 173.58361 264.47834 165.46902 curveto
250.70306 165.28766 236.60338 166.1439 222.47834 164.96902 curveto
222.19709 164.93777 lineto
221.94709 164.87527 lineto
211.13711 161.92326 208.04936 146.27184 217.63459 140.09402 curveto
217.63459 140.06277 lineto
217.63964 140.05967 217.66058 140.03397 217.66584 140.03152 curveto
217.67661 140.02739 217.71756 140.03561 217.72834 140.03152 curveto
217.73361 140.0291 217.75452 140.00331 217.75959 140.00027 curveto
217.85815 139.93847 217.90839 139.84131 218.00959 139.78152 curveto
218.04084 139.84402 lineto
226.70365 133.09987 239.42277 140.17751 240.29084 150.34402 curveto
248.32209 150.34402 256.35334 150.34402 264.38459 150.34402 curveto
263.89152 130.09264 246.6239 112.07988 226.00959 112.78152 curveto
closepath
401.79084 112.78152 moveto
401.47953 112.79378 401.16554 112.82268 400.85334 112.84402 curveto
400.72834 112.87527 lineto
400.60334 112.87527 lineto
377.21504 112.68372 357.82332 138.70023 364.54084 161.12527 curveto
364.57209 161.18777 lineto
364.57209 161.21902 lineto
368.8831 177.56568 384.53068 190.52229 401.63459 189.81277 curveto
401.72834 189.81277 lineto
401.79084 189.81277 lineto
410.71493 189.90131 419.80928 187.25053 426.13459 181.37527 curveto
428.00959 179.62527 lineto
430.04084 181.21902 lineto
436.65783 186.501 444.94741 189.43387 453.38459 189.68777 curveto
453.38459 181.6461 453.38459 173.60444 453.38459 165.56277 curveto
445.17211 164.69851 439.13413 156.7334 440.16584 148.43777 curveto
440.13459 148.43777 lineto
439.1302 129.12784 421.40325 112.00884 401.79084 112.78152 curveto
closepath
711.82209 112.78152 moveto
711.43381 112.79193 711.05526 112.81881 710.66584 112.84402 curveto
710.57209 112.87527 lineto
710.44709 112.87527 lineto
687.10289 112.69824 667.66691 138.6685 674.41584 161.12527 curveto
674.44709 161.18777 lineto
674.44709 161.21902 lineto
678.75704 177.77605 694.82797 190.76354 712.10334 189.81277 curveto
712.16584 189.81277 lineto
712.19709 189.81277 lineto
719.7978 189.6652 725.28519 195.95025 725.91584 202.96902 curveto
733.93667 202.96902 741.95751 202.96902 749.97834 202.96902 curveto
749.28056 182.91298 731.03276 164.2692 710.60334 165.40652 curveto
710.50959 165.43777 lineto
710.44709 165.43777 lineto
697.88524 165.54622 692.77837 147.63577 702.72834 140.50027 curveto
702.72834 140.46902 lineto
702.73149 140.46678 702.72512 140.43981 702.72834 140.43777 curveto
702.75462 140.42279 702.79572 140.42127 702.82209 140.40652 curveto
702.82857 140.40252 702.84718 140.38012 702.85334 140.37527 curveto
702.86443 140.36756 702.87486 140.3527 702.88459 140.34402 curveto
702.88919 140.33949 702.91145 140.31745 702.91584 140.31277 curveto
702.94118 140.284 702.98392 140.24755 703.00959 140.21902 curveto
703.01405 140.2144 703.03615 140.19223 703.04084 140.18777 curveto
703.05079 140.17925 703.06071 140.16402 703.07209 140.15652 curveto
703.10334 140.21902 lineto
711.49827 133.0071 724.93091 139.68647 725.72834 150.09402 curveto
727.12204 150.37385 728.90793 150.5167 731.16584 150.43777 curveto
734.19987 150.33171 737.57472 150.04464 740.79084 150.34402 curveto
742.27905 150.05991 743.66686 150.09747 745.00959 150.21902 curveto
746.6166 150.3645 748.18301 150.56464 749.32209 150.59402 curveto
750.01045 150.61177 750.10689 150.57437 750.19709 150.56277 curveto
750.20378 150.5622 750.22095 150.56303 750.22834 150.56277 curveto
750.21833 150.48675 750.23222 150.44846 750.22834 150.40652 curveto
750.2232 150.36596 750.19818 150.3026 750.16584 150.18777 curveto
750.07209 149.84402 lineto
750.04084 149.50027 lineto
749.21872 130.2235 731.31363 112.25893 711.82209 112.78152 curveto
closepath
837.19709 112.78152 moveto
836.80153 112.79143 836.40678 112.81893 836.00959 112.84402 curveto
835.91584 112.87527 lineto
835.82209 112.87527 lineto
812.7582 112.71458 793.44556 138.07476 799.54084 160.18777 curveto
799.54084 160.25027 lineto
799.57209 160.31277 lineto
803.49115 177.23942 819.89513 190.82653 837.44709 189.81277 curveto
837.50959 189.81277 lineto
837.57209 189.81277 lineto
845.13393 189.69521 850.68304 195.93566 851.19709 202.96902 curveto
859.21792 202.96902 867.23875 202.96902 875.25959 202.96902 curveto
874.69762 182.90351 856.32817 164.2702 835.94709 165.40652 curveto
835.85334 165.43777 lineto
835.75959 165.43777 lineto
822.80664 165.43985 818.15124 146.85415 828.63459 140.06277 curveto
828.63459 140.03152 lineto
828.6761 140.00321 828.7185 139.9678 828.75959 139.93777 curveto
828.76464 139.93421 828.78604 139.91026 828.79084 139.90652 curveto
828.83675 139.86767 828.9004 139.81976 828.94709 139.78152 curveto
828.95688 139.7742 828.96741 139.75678 828.97834 139.75027 curveto
829.00959 139.81277 lineto
837.64921 133.12958 850.4618 140.19187 851.19709 150.34402 curveto
859.21792 150.34402 867.23875 150.34402 875.25959 150.34402 curveto
874.71078 130.7538 857.05423 112.28422 837.19709 112.78152 curveto
closepath
626.04084 112.81277 moveto
625.79924 112.81611 625.56391 112.83524 625.32209 112.84402 curveto
625.25959 112.87527 lineto
625.22834 112.87527 lineto
605.29378 113.06329 586.79787 130.98714 587.72834 151.18777 curveto
587.72834 151.28152 lineto
587.72834 151.37527 lineto
587.43254 171.63608 605.58282 190.80583 626.13459 189.81277 curveto
626.25959 189.78152 lineto
626.38459 189.81277 lineto
646.57804 190.71269 664.45611 172.22332 664.66584 152.31277 curveto
664.66584 152.21902 lineto
664.66584 152.15652 lineto
665.89869 131.51594 646.41609 112.53122 626.04084 112.81277 curveto
closepath
553.25959 113.50027 moveto
553.25958 138.93777 553.25959 164.37527 553.25959 189.81277 curveto
561.36375 189.81277 569.46792 189.81277 577.57209 189.81277 curveto
577.57209 164.37527 577.57209 138.93777 577.57209 113.50027 curveto
569.46792 113.50027 561.36376 113.50027 553.25959 113.50027 curveto
closepath
763.97834 113.50027 moveto
763.97833 138.93777 763.97834 164.37527 763.97834 189.81277 curveto
772.09292 189.81277 780.20751 189.81277 788.32209 189.81277 curveto
788.32209 164.37527 788.32209 138.93777 788.32209 113.50027 curveto
780.2075 113.50027 772.09292 113.50027 763.97834 113.50027 curveto
closepath
626.07209 136.50027 moveto
626.08844 136.49949 626.11932 136.49991 626.13459 136.50027 curveto
626.14235 136.50033 626.15768 136.5006 626.16584 136.50027 curveto
626.22976 136.50247 626.28919 136.4972 626.35334 136.50027 curveto
626.35334 136.53152 lineto
638.52751 136.21595 645.81571 152.29535 637.32209 161.21902 curveto
637.3167 161.22147 637.2968 161.2483 637.29084 161.25027 curveto
637.28793 161.25132 637.26229 161.24905 637.25959 161.25027 curveto
637.25559 161.25509 637.23197 161.27651 637.22834 161.28152 curveto
637.19515 161.33325 637.16863 161.41768 637.13459 161.46902 curveto
637.13086 161.47399 637.10745 161.4955 637.10334 161.50027 curveto
637.07209 161.46902 lineto
633.34967 165.89872 627.319 167.05148 622.13459 165.75027 curveto
616.97368 164.45496 612.21772 160.31601 611.66584 154.21902 curveto
611.63459 154.21902 lineto
611.63339 154.21312 611.63561 154.19366 611.63459 154.18777 curveto
611.62252 154.10553 611.61841 154.02041 611.60334 153.93777 curveto
611.60287 153.93074 611.60437 153.9132 611.60334 153.90652 curveto
611.5976 153.88079 611.57765 153.83858 611.57209 153.81277 curveto
611.57112 153.80606 611.57247 153.78859 611.57209 153.78152 curveto
611.60334 153.78152 lineto
610.09582 144.97402 616.83122 136.27585 626.07209 136.53152 curveto
626.07209 136.50027 lineto
closepath
401.22834 137.15652 moveto
401.38795 137.14887 401.53665 137.15868 401.69709 137.15652 curveto
401.72834 137.15652 lineto
412.65405 136.91946 419.78395 149.79586 413.91584 158.93777 curveto
413.94709 158.96902 lineto
413.94354 158.97335 413.91986 158.9965 413.91584 159.00027 curveto
413.90723 159.00714 413.89322 159.02467 413.88459 159.03152 curveto
413.88055 159.03527 413.85692 159.05848 413.85334 159.06277 curveto
413.85169 159.06655 413.8545 159.09007 413.85334 159.09402 curveto
413.85159 159.10213 413.82385 159.11716 413.82209 159.12527 curveto
413.82091 159.12922 413.82376 159.15274 413.82209 159.15652 curveto
413.79084 159.15652 lineto
407.36358 169.98727 389.23505 165.80547 387.79084 153.37527 curveto
387.75959 153.37527 lineto
387.75909 153.37132 387.75986 153.34795 387.75959 153.34402 curveto
387.75951 153.34011 387.75951 153.31667 387.75959 153.31277 curveto
387.76074 153.29725 387.75838 153.26578 387.75959 153.25027 curveto
387.7597 153.24637 387.75963 153.22293 387.75959 153.21902 curveto
387.75936 153.21509 387.76003 153.19172 387.75959 153.18777 curveto
387.75863 153.18503 387.76102 153.15907 387.75959 153.15652 curveto
387.75788 153.15409 387.73014 153.15892 387.72834 153.15652 curveto
387.72692 153.15397 387.72929 153.12802 387.72834 153.12527 curveto
386.31551 144.80003 393.21599 137.54069 401.22834 137.15652 curveto
closepath
502.38459 137.15652 moveto
502.51391 137.15082 502.6297 137.15861 502.75959 137.15652 curveto
502.79084 137.15652 lineto
502.82209 137.15652 lineto
513.89886 136.85923 521.2788 150.47474 514.38459 159.34402 curveto
514.38099 159.34833 514.35734 159.37149 514.35334 159.37527 curveto
514.34484 159.3822 514.33061 159.39962 514.32209 159.40652 curveto
514.32017 159.40851 514.29265 159.43564 514.29084 159.43777 curveto
514.27776 159.45424 514.2695 159.48274 514.25959 159.50027 curveto
514.25653 159.50619 514.23122 159.52553 514.22834 159.53152 curveto
514.21735 159.55564 514.20826 159.60121 514.19709 159.62527 curveto
514.19415 159.63123 514.16899 159.65063 514.16584 159.65652 curveto
514.15901 159.66813 514.14281 159.67662 514.13459 159.68777 curveto
514.10334 159.68777 lineto
507.49234 169.84632 490.59354 165.46109 488.91584 153.65652 curveto
488.88459 153.65652 lineto
488.88405 153.65258 488.88489 153.6292 488.88459 153.62527 curveto
488.8845 153.62136 488.88451 153.59792 488.88459 153.59402 curveto
488.88585 153.57848 488.88327 153.54705 488.88459 153.53152 curveto
488.8847 153.52762 488.88464 153.50418 488.88459 153.50027 curveto
488.88434 153.49635 488.88508 153.47296 488.88459 153.46902 curveto
488.8836 153.46629 488.88601 153.44032 488.88459 153.43777 curveto
488.88291 153.43532 488.85511 153.44018 488.85334 153.43777 curveto
488.85193 153.43521 488.85432 153.40926 488.85334 153.40652 curveto
487.27276 144.98623 494.23745 137.51544 502.38459 137.15652 curveto
closepath
625.16584 139.46902 moveto
618.15466 139.79013 613.17811 146.74439 614.57209 153.62527 curveto
615.09813 163.48982 629.3732 166.44432 634.97834 159.37527 curveto
641.9686 152.41228 635.84985 139.04011 626.19709 139.50027 curveto
625.84286 139.48333 625.51065 139.45323 625.16584 139.46902 curveto
closepath
401.85334 140.12527 moveto
401.82002 140.12575 401.793 140.15572 401.75959 140.15652 curveto
395.28598 140.22912 389.4437 146.24073 390.69709 152.84402 curveto
391.6368 162.66836 406.4162 166.14254 411.32209 157.50027 curveto
416.04385 150.42874 410.35048 140.00306 401.85334 140.12527 curveto
closepath
502.94709 140.12527 moveto
502.91328 140.126 502.88723 140.15545 502.85334 140.15652 curveto
496.28332 140.23277 490.43435 146.38723 491.82209 153.06277 curveto
492.95733 162.41476 506.81819 166.12622 511.82209 157.81277 curveto
517.53346 150.98091 511.56853 139.93952 502.94709 140.12527 curveto
closepath
625.04084 142.46902 moveto
625.37648 142.44275 625.72394 142.45237 626.07209 142.46902 curveto
626.19709 142.50027 lineto
626.35334 142.46902 lineto
633.18465 142.14336 637.86284 152.26032 632.85334 157.25027 curveto
632.72834 157.34402 lineto
632.63459 157.50027 lineto
630.72877 159.90384 626.98041 160.78536 623.60334 159.93777 curveto
620.22627 159.09018 617.75912 156.94499 617.57209 153.43777 curveto
617.57209 153.21902 lineto
617.50959 153.00027 lineto
616.48535 147.94451 620.00626 142.86306 625.04084 142.46902 curveto
closepath
401.85334 143.12527 moveto
407.93183 142.97905 412.1852 150.77603 408.82209 155.81277 curveto
408.75959 155.90652 lineto
408.72834 156.00027 lineto
405.26983 162.09282 394.3593 159.45468 393.69709 152.53152 curveto
393.66584 152.40652 lineto
393.66584 152.28152 lineto
392.79317 147.68398 397.15391 143.20852 401.79084 143.15652 curveto
401.82209 143.15652 lineto
401.85334 143.12527 lineto
closepath
502.94709 143.12527 moveto
509.03065 142.93252 513.59211 151.0292 509.54084 155.87527 curveto
509.38459 156.06277 lineto
509.25959 156.25027 lineto
505.72144 162.12854 495.61675 159.23409 494.82209 152.68777 curveto
494.79084 152.56277 lineto
494.75959 152.43777 lineto
493.78853 147.76658 498.16703 143.21127 502.88459 143.15652 curveto
502.91584 143.15652 lineto
502.94709 143.12527 lineto
closepath
fill
grestore
grestore
grestore
showpage
